Nro.,APELLIDOS Y NOMBRES,TIPO_DOCUMENTO,NRO_DOCUMENTO,NACIONALIDAD,GENERO,GRADO,PAIS_RECIDE_ACTUAL,FECHA_NACIMIENTO,DEPART_NACE,MUNICIP_NACE,6_HA_PRESENTADO_PRUEBAS_SABER,,,,,ETNICO_MINORITARIO,ETNIA_PERTENECE,DISCAPACIDAD,DEPTO_RESIDE,DANE_RESIDE_DEPTO,MCPIO_RESIDE,DANE_RESIDE_MCPIO,AREA_RESIDENCIA,NOMBRE_URBANO,NOMBRE_RURAL,NIVEL_EDUCATIVO_MAS_ALTO_DEL_PADRE,,,,,,,,,,,,NIVEL_EDUCATIVO_MAS_ALTO_DE_LA_MADRE,,,,,,,,,,,,ESTRATO,SISBEN,PERSONA_CONFORMA_HOGAR,NRO_HERMANAS,NRO_HERMANOS,MATERIAL_PISOS,HABITACION_DUERME_HOGAR,HOGAR_INTERNET,HOGAR_SERVICIO_TV,H_PC,H_LAVADORA,H_HORNO_MICROO,H_HORNO_ELECT,H_HORNO_GAS,H_DVD,HOGAR_NEVERA,H_HOGAR_CELULAR,H_PLAY,H_XBOX,H_NINTENDO,H_BICI,H_CEL_PERS,H_MOTO,H_AUTO_PARTIC,H_AUTO_PUBLIC,H_TAXI,HOGAR_LIBROS,HOGAR_INGRESOS_MES,H_COME_LECHE,H_COME_QUESO,H_COME_YOGURT,H_COME_CERDO,H_COME_POLLO,H_COME_PAVO,H_COME_RES,H_COME_CORDERO,H_COME_CONEJO,H_COME_PESCADO,H_COME_HUEVO,H_COME_AVENA,H_COME_CEREAL,H_COME_ALMENDRAS,H_COME_MANI,H_COME_FRIJOLES,H_COME_LENTEJAS,H_COME_GARBANZOS,LABOR_PADRE,LABOR_MADRE,LABOR_ACUDIENTE,SITUACIÓN_HOGAR,TIEMPO_DEDICA_LEER,TIEMPO_DEDICA_NAVEGAR,TRABAJO_SEMANA_PAST,REMUNERACIÓN_TRABAJO,p1-1,p1-2,p1-3,p2-1,p2-2,p2-3,p2-4,p2-5,p3-1,p3-2,p3-3,p3-4,p4-1,p4-2,p4-3
1,AVILA CALLEJAS EIDER FERNEY,T.I.,1.003.657.742,Colombiano,Masculino,1101,Colombia,8/26/2010,Cundinamarca,Facatativá,1,1,1,0,1,0,0,0,Cundinamarca,25,Albán,25019,Rural,0,Pantanillo,,,,1,,,,,,,,,,,,1,,,,,,,,,2,"19,16",3,1,2,Baldosa,2,1,0,1,1,1,0,0,1,1,0,1,0,0,0,1,0,0,0,0,1 A 10,$828.116,4,4,1,6,4,0,6,0,0,2,4,0,4,0,0,0,0,0,Desempleado,Economa,Economa,Buena,"0,5",3,6,$10.000,1,1,1,1,1,1,0,0,0,1,1,0,0,0,0
2,BARON INFANTE DANIELA ,C.C.,1.193.587.270,Colombiano,Femenino,1101,Colombia,2/21/2001,Cundinamarca,Facatativá,1,1,1,0,1,0,0,0,Cundinamarca,25,Guayabal,25328,Urbana,Principal,0,,,,,1,,,,,,,,,,,,1,,,,,,,,1,"35,51",1,3,0,Baldosa,1,0,0,0,0,0,0,0,1,1,0,0,0,0,0,1,0,0,0,0,1 A 5,menos de 828.116,5,2,1,2,5,0,1,0,0,0,0,0,0,0,0,1,2,0,Avicultor,Administradora de finca,Administradora de finca,Buena,1,3,7,$25.000,1,1,1,1,0,1,0,1,0,0,0,0,1,0,0
3,BARRAGAN SOLER EVELIN JOHANA,T.I.,1.006.861.140,Colombiano,Femenino,1101,Colombia,2/1/2013,Meta,Villavicencio,1,1,1,0,1,0,0,0,Cundinamarca,25,Facatativá,25269,Urbana,Villa olimpica,0,,,1,,,,,,,,,,,,1,,,,,,,,,,2,"69,95",3,2,0,Baldosa,2,1,0,1,1,0,0,0,1,1,0,0,0,0,1,1,0,0,0,0,1 A 30,$828.116,2,1,1,4,3,0,4,0,0,0,0,2,3,0,2,3,3,1,Conductor,Ama de casa,Ama de casa,Buena,1,3,0,$0,1,1,1,1,1,1,0,1,0,0,0,0,0,0,0
4,BERNAL PARRA JUAN DAVID,T.I.,1.003.510.668,Colombiano,Masculino,1101,Colombia,1/2/2003,Cundinamarca,Facatativá,0,0,1,0,0,0,0,0,Cundinamarca,25,Albán,25019,Urbana,El progreso,0,,,,,1,,,,,,,,,,,,1,,,,,,,,2,"58,19",4,1,0,Baldosa,3,0,0,0,1,1,0,1,1,1,1,1,0,0,1,0,0,0,0,0,1 A 5,$1.656.232,4,2,5,5,4,1,7,0,0,0,7,2,7,0,2,1,1,1,Conductor,Comerciante,Comerciante,Buena,"0,5",3,"2,5",$0,1,0,1,0,0,0,1,0,0,0,0,0,0,0,0
5,CAMELO AGUAS DEISI CONSUELO,C.C.,1.007.509.997,Colombiano,Femenino,1.101,Colombia,2/28/2009,Cundinamarca,Madrid,1,1,1,0,0,0,0,0,Cundinamarca,25,Albán,25019,Urbana,0,Los alpes,,,1,,,,,,,,,,,,1,,,,,,,,,,2,"25,35",7,3,2,Cemento,3,0,0,0,0,0,0,0,1,1,1,0,0,0,1,1,0,0,0,0,1 A 5,menos de 828.116,3,1,0,0,0,0,0,0,0,0,3,6,0,0,0,2,2,1,Administrador,Ama de casa,Ama de casa,Regular,1,5,0,$0,0,0,0,0,0,0,0,1,0,0,0,0,0,0,0
6,CASTRO ORIGUA JAVIER ANDRES,T.I.,1.003.657.899,Colombiano,Masculino,1101,Colombia,12/29/2002,Cundinamarca,Facatativá,1,1,1,0,1,0,0,0,Cundinamarca,25,Albán,25019,Rural,0,Maria alta,,,,,1,,,,,,,,1,,,,,,,,,,,,1,"49,08",3,1,1,Baldosa,3,1,0,0,1,0,0,0,1,1,1,0,0,0,1,1,0,1,0,0,1 A 30,menos de 828.116,2,1,3,3,1,0,3,0,0,0,2,3,4,0,1,1,1,1,Empleado,Ama de casa,Ama de casa,Buena,"0,5",2,2,$10.000,1,1,1,1,1,1,1,1,0,1,0,0,1,0,0
7,CASTRO VALBUENA LINA JOHANA,T.I.,1.003.647.186,Colombiano,Femenino,1101,Colombia,3/9/2003,Cundinamarca,El peñon,1,1,1,0,1,0,0,0,Cundinamarca,25,Albán,25019,Rural,0,Guayacundo,,1,,,,,,,,,,,,1,,,,,,,,,,,2,"15,15",4,3,2,Cemento,3,0,0,1,1,1,0,0,0,1,0,0,0,0,1,1,1,0,0,0,1 A 30,menos de 828.116,5,3,2,1,1,0,1,0,0,0,4,3,2,0,3,0,0,0,Manipulación de alimento,Servicios domesticos,Servicios domesticos,Regular,"0,5","0,5",0,$0,1,1,1,0,1,1,1,0,0,0,0,0,1,0,0
8,CHINCHILLA AGUIRRE LOREN DAYANA,T.I.,1.005.848.406,Colombiano,Femenino,1101,Colombia,10/29/2001,Tolima,Ambalema,1,1,1,0,1,0,0,0,Cundinamarca,25,Facatativá,25269,Rural,0,La tribuna,,,1,,,,,,,,,,,,1,,,,,,,,,,2,"17,71",6,1,2,Cemento,3,1,0,1,1,0,0,1,1,1,0,0,1,0,0,1,0,0,0,0,1 A 20,$828.116,7,7,3,4,3,0,4,0,0,0,7,3,4,0,7,1,1,1,Comerciante,Ama de casa,Ama de casa,Regular,2,2,3,$10.000,1,1,1,1,1,1,1,1,0,0,0,1,0,0,0
9,CIFUENTES CARMONA FRIDZI JULEISI,T.I.,1.070.385.938,Colombiano,Femenino,1101,Colombia,3/31/2003,Cundinamarca,Facatativá,1,1,1,0,1,0,0,0,Cundinamarca,25,Albán,25019,Rural,0,La maria,,,,1,,,,,,,,,,,,,1,,,,,,,,2,"33,96",4,1,1,Baldosa,1,0,0,1,1,0,0,0,1,1,0,0,0,0,1,1,1,0,0,0,1 A 30,menos de 828.116,5,3,5,3,2,0,2,0,0,0,7,1,6,3,3,2,2,2,Celador,Mesera,Mesera,Buena,"0,5",2,0,$0,1,1,0,0,0,1,0,1,0,1,0,1,1,0,0
10,CRUZ ESPINEL ANGELA PATRICIA,T.I.,1.010.154.561,Colombiano,Femenino,1101,Colombia,1/2/2002,Cundinamarca,Albán,0,1,1,0,1,0,0,0,Cundinamarca,25,Albán,25019,Urbana,El progreso,0,,,,1,,,,,,,,,,,1,,,,,,,,,,2,"46,95",6,0,4,Baldosa,4,1,0,1,1,0,0,1,1,1,0,0,1,0,0,1,0,0,0,0,1 A 10,menos de 828.116,7,1,2,1,1,0,0,0,0,0,1,1,1,0,0,2,2,1,Conductor M.P.,Ama de casa,Ama de casa,Buena,"0,5",3,0,$0,1,1,1,0,1,1,0,1,1,1,0,0,1,0,0
11,CUBILLOS VILLAMIL DANI SANTIAGO,T.I.,1.003.657.845,Colombiano,Masculino,1101,Colombia,4/29/2003,Cundinamarca,Facatativá,1,1,1,0,1,0,0,0,Cundinamarca,25,Albán,25019,Urbana,El progreso,0,,,,,,1,,,,,,,,,,,,1,,,,,,,2,"31,94",4,1,0,Baldosa,3,1,1,1,1,0,1,0,1,1,1,1,0,0,1,1,1,1,0,0,1 A 20,$2.484.348,6,5,5,7,7,1,5,1,1,4,6,4,5,4,4,3,2,2,Tecnico ecopetrol,Auxiliar de enfermeria,Auxiliar de enfermeria,Buena,1,2,0,$0,1,1,1,1,1,1,1,0,0,1,0,0,0,0,0
12,DAVILA GUTIERREZ GERMAN MAURICIO,T.I.,1.007.509.897,Colombiano,Masculino,1101,Colombia,5/16/2002,Cundinamarca,Madrid,1,1,1,0,1,0,0,0,Cundinamarca,25,Albán,25019,Rural,0,Garbanzal,,1,,,,,,,,,,,,,,1,,,,,,,,,2,"30,95",5,1,1,Baldosa,3,1,0,1,1,0,0,0,1,1,1,0,1,0,1,1,1,0,0,0,1 A 20,$828.116,3,4,0,0,0,1,3,0,0,0,4,4,2,1,1,1,2,1,Estibador,Ama de casa,Ama de casa,Muy buena,"0,5",1,2,$15.000,1,1,1,1,1,1,1,1,0,1,0,0,1,0,0
13,ESPITIA FORERO ABRIL VALENTINA,C.C.,1.003.657.817,Colombiano,Femenino,1101,Colombia,9/16/2000,Cundinamarca,Facatativá,0,0,1,0,1,0,0,0,Cundinamarca,25,Albán,25019,Urbana,La gruta,0,,,,,,,,,,1,,,,,,,,,,1,,,,,2,"47,28",3,1,1,Marmol,3,0,0,0,1,0,0,0,0,1,1,0,0,0,0,1,0,1,0,0,1 A 30,$828.116,4,6,4,4,4,1,1,0,0,1,3,1,3,2,4,1,1,1,Asesor juridico,Asistente agronoma,Profesora pensionada,Regular,2,4,0,$0,1,1,1,1,1,1,0,1,0,0,0,0,1,0,0
14,FALCO ACOSTA EMILIN LORENA,T.I.,1.003.533.448,Colombiano,Femenino,1101,Colombia,9/24/2002,Cundinamarca,Facatativá,1,1,1,0,1,0,0,0,Cundinamarca,25,Albán,25019,Rural,0,Pantanillo,,1,,,,,,,,,,,,1,,,,,,,,,,,2,"26,58",4,2,1,Tabla o tablon,2,1,0,1,1,0,0,0,1,1,1,0,0,0,0,1,1,0,0,0,1 A 30,menos de 828.116,3,1,0,1,3,0,0,0,0,0,4,5,0,0,0,0,1,0,Administrados de finca,Ama de casa,Administrados de finca,Regular,3,2,4,$15.000,1,1,1,0,0,1,0,1,0,0,0,0,1,0,0
15,GALEANO CASTRO JOHAN DAVID,T.I.,1.193.550.563,Colombiano,Masculino,1101,Colombia,3/12/2002,Cundinamarca,Facatativá,1,1,1,0,1,0,0,0,Cundinamarca,25,Albán,25019,Rural,0,La maria,,1,,,,,,,,,,,,,,1,,,,,,,,,2,"10,42",7,4,5,Cemento,2,1,0,0,1,1,0,0,1,1,1,0,0,0,0,1,0,0,0,0,1 A 30,menos de 828.116,2,0,2,3,4,1,1,1,0,0,4,1,0,0,1,1,1,1,Maestro de obra,Ama de casa,Ama de casa,Regular,"0,5",1,2,$30.000,1,1,1,1,1,1,1,1,0,1,0,0,1,0,0
16,GAVIRIA PRIETO SERGIO ANDRES,T.I.,1.192.731.552,Colombiano,Masculino,1101,Colombia,7/18/2002,Cundinamarca,Albán,1,0,0,0,0,0,0,0,Cundinamarca,25,Albán,25019,Urbana,El progreso,0,,,1,,,,,,,,,,,,,1,,,,,,,,,1,"20,8",4,1,1,Cemento,3,0,0,1,1,0,0,1,1,1,1,0,0,0,0,1,1,0,0,0,1 A 30,$828.116,2,2,0,2,1,0,1,0,0,1,7,0,1,0,0,1,1,1,Comerciante,Ama de casa,Ama de casa,Buena,"0,5",3,0,$0,1,1,1,0,1,1,1,1,0,0,0,0,0,0,0
17,GONZALEZ AYALA LAUREN JULIANA,T.I.,1.003.657.738,Colombiano,Femenino,1101,Colombia,7/12/2002,Cundinamarca,Facatativá,0,0,1,0,0,0,0,0,Cundinamarca,25,Albán,25019,Urbana,La esperanza,0,,,,1,,,,,,,,,,,,,,1,,,,,,,2,"16,89",7,1,1,Baldosa,3,1,1,1,1,0,0,0,1,1,0,0,0,0,1,1,1,1,0,0,1 A 20,$828.116,7,5,3,5,6,1,5,1,1,1,7,1,1,0,1,2,2,2,Comerciante,Profesora,Ama de casa,Regular,2,4,1,$3.000,1,1,1,1,1,1,1,1,0,1,0,0,1,0,0
18,GONZALEZ ENCISO ERIKA KATERINE,T.I.,1.192.722.925,Colombiano,Femenino,1101,Colombia,3/7/2003,Cundinamarca,Facatativá,1,1,1,0,1,0,0,0,Cundinamarca,25,Albán,25019,Rural,0,Pantanillo,,,1,,,,,,,,,,,1,,,,,,,,,,,1,"48,47",3,2,1,Cemento,2,1,0,1,1,0,0,0,1,1,0,0,0,0,1,1,0,1,0,0,1 A 30,$1.656.232,6,4,4,7,5,1,7,2,1,3,7,3,6,5,4,1,3,2,Comerciante,Comerciante,Comerciante,Muy buena,2,4,5,$25.000,1,1,1,1,1,1,0,0,0,0,0,0,0,0,0
19,GONZALEZ SUAREZ HELEN VALENTINA,T.I.,1.003.824.570,Colombiano,Femenino,1101,Colombia,8/10/2002,Cundinamarca,Zipaquira,1,1,1,0,0,0,0,0,Cundinamarca,25,Albán,25019,Rural,0,Namay bajo,,,,,,,,1,,,,,,,,,,,1,,,,,,2,"42,72",4,0,2,Cemento,2,0,0,1,1,1,0,0,1,1,0,0,1,0,1,1,1,0,0,0,1 A 30,menos de 828.116,7,1,1,7,6,0,0,0,0,2,5,0,3,0,0,2,3,3,Ingeniero quimico,Monitora escolar,Mecanica automotriz,Regular,2,2,0,$0,1,1,1,0,1,1,1,1,1,1,0,0,0,0,0
20,HURTADO COMBA IVONE MAGALY ,T.I.,1.003.750.254,Colombiano,Femenino,1101,Colombia,12/27/2002,Cundinamarca,Soacha,1,1,1,0,1,0,0,0,Cundinamarca,25,Albán,25019,Rural,0,Garbanzal,1,,,,,,,,,,,,,,,,,1,,,,,,,1,"32,4",8,0,2,Baldosa,6,1,1,1,1,1,1,1,1,1,0,0,0,0,0,0,1,0,0,0,1 A 30,$828.116,4,1,1,3,3,0,2,0,0,1,2,1,1,0,0,2,2,1,NO TIENE,Servicios generales,Pensionado,Regular,3,3,3,$20.000,1,0,1,1,1,1,0,1,0,0,0,0,0,0,0
21,LOPEZ MENDES YESICA NATALIA,T.I.,1.003.741.654,Colombiano,Femenino,1101,Colombia,12/25/2001,Cundinamarca,Funza,1,1,1,0,0,0,0,0,Cundinamarca,25,Albán,25019,Urbana,La esperanza,0,,,,,1,,,,,,,,,,,,1,,,,,,,,2,"38,04",3,2,1,Baldosa,2,1,0,1,1,0,0,0,1,1,1,0,0,0,0,1,0,0,0,0,1 A 20,$828.116,7,1,2,5,1,0,1,0,0,0,6,2,1,0,1,1,1,1,Conductor,Comerciante,Comerciante,Buena,1,1,4,$25.000,1,1,1,1,0,0,0,1,0,1,1,0,0,0,0
22,LOZADA AVENDAÑO YESICA ALEJANDRA,T.I.,1.193.529.507,Colombiano,Femenino,1101,Colombia,5/12/2001,Cundinamarca,Facatativá,1,1,1,0,1,0,0,0,Cundinamarca,25,Albán,25019,Rural,0,Maria alta,,,1,,,,,,,,,,,,,1,,,,,,,,,2,"23,66",5,2,0,Baldosa,2,1,0,1,1,0,1,1,1,1,1,0,0,0,1,1,1,0,0,0,1 A 20,$1.656.232,6,4,4,7,7,2,6,1,1,4,7,2,5,5,6,7,7,3,Ecopetrol,sos contingencias,Ecopetrol,Buena,2,4,3,$10.000,1,1,1,1,1,1,0,1,0,0,0,0,0,0,1
23,MARTINEZ LANCHEROS DAYANA CATALINA,T.I.,1.003.558.152,Colombiano,Femenino,1101,Colombia,10/11/2002,Cundinamarca,La vega,0,1,1,0,1,0,0,0,Cundinamarca,25,Sasaima,25718,Rural,0,El sinai,1,,,,,,,,,,,,,,1,,,,,,,,,,2,"21,92",4,2,1,Cemento,,0,0,0,0,0,0,1,0,1,0,0,0,0,0,1,1,0,0,0,1 A 10,$828.116,7,1,1,7,6,0,6,0,0,1,5,3,4,0,0,4,2,1,Trabajador de finca,Ama de casa,Ama de casa,Buena,2,"0,5",0,$0,1,1,1,0,1,1,0,1,1,1,1,0,0,0,0
24,MARTINEZ VICTOR PASCUAL,C.C.,1.003.560.703,Colombiano,Masculino,1101,Colombia,11/22/2000,Cundinamarca,Sasaima,0,1,1,0,1,0,0,0,Cundinamarca,25,Albán,25019,Rural,0,Garbanzal,,,1,,,,,,,,,,,,1,,,,,,,,,,2,"32,06",3,0,0,Cemento,2,1,0,0,1,1,0,0,1,1,0,0,0,0,1,1,1,0,0,0,1 A 20,$828.116,6,4,4,6,5,2,6,3,1,2,5,5,5,1,4,6,2,4,Empleado ganaderia,Ama de casa,Ama de casa,Buena,"0,5",1,1,$25.000,0,0,1,1,1,1,0,0,0,1,0,0,0,1,1
25,MORENO LOMBANA IOAN FERNEY,T.I.,1.003.657.813,Colombiano,Masculino,1101,Colombia,2/26/2001,Cundinamarca,Albán,0,0,1,0,0,0,0,0,Cundinamarca,25,Albán,25019,Urbana,0,El progreso,,,1,,,,,,,,,,,,1,,,,,,,,,,2,"30,28",1,0,2,Cemento,1,0,0,0,0,0,0,0,0,0,0,0,0,0,1,1,0,0,0,0,1 A 5,menos de 828.116,5,1,3,5,2,1,0,0,0,1,3,2,6,0,0,1,1,0,Oficios varios,Ama de casa,Ama de casa,Buena,1,3,0,$0,1,0,1,1,1,1,1,0,0,1,1,0,0,0,0
26,PENAGOS SANCHEZ XIMENA,C.C.,1.007.668.752,Colombiano,Femenino,1101,Colombia,3/6/2000,Cundinamarca,Facatativá,1,1,1,0,0,0,0,0,Cundinamarca,25,Albán,25019,Urbana,0,Portal de maria,,,,1,,,,,,,,,,,,1,,,,,,,,,2,"34,79",4,0,1,Baldosa,3,1,1,1,1,0,0,1,0,1,0,0,0,0,1,1,0,1,0,0,1 A 10,$828.116,4,0,5,4,3,0,2,0,0,3,3,6,4,0,1,0,2,1,Administrador de finca,Operario flora,Operario flora,Buena,"0,5",3,0,$0,1,1,1,1,1,1,0,1,0,0,0,0,0,0,0
27,RAMOS MONROY ANDRES FELIPE,C.C.,1.192.786.720,Colombiano,Masculino,1101,Colombia,1/20/2000,Cundinamarca,Albán,1,0,1,0,0,0,0,0,Cundinamarca,25,Albán,25019,Rural,0,Garbanzal,,1,,,,,,,,,,,,1,,,,,,,,,,,2,"17,58",6,6,3,Cemento,3,0,0,0,1,0,0,1,1,1,1,0,0,0,1,0,0,0,0,0,1 A 20,$828.116,1,0,1,4,5,0,4,0,0,1,5,0,0,0,0,4,5,5,Maestro de obra,Ama de casa,Ama de casa,Regular,"0,5","0,5",0,$0,1,0,1,1,1,1,1,0,0,1,1,0,0,0,0
28,RAMOS MORENO YURI CATALINA,T.I.,1.003.657.876,Colombiano,Femenino,1101,Colombia,12/20/2002,Cundinamarca,Albán,0,0,0,0,0,0,0,0,Cundinamarca,25,Albán,25019,Urbana,Arboleda,0,,,,1,,,,,,,,,,,,1,,,,,,,,,2,"21,44",4,1,2,Baldosa,4,1,0,1,1,0,0,0,1,1,1,0,0,0,0,1,0,0,0,0,1 A 30,$1.656.232,7,2,1,1,2,0,3,0,0,1,4,0,0,0,0,1,1,1,Independiente,Ama de casa,Independiente,Buena,1,1,0,$0,1,1,1,1,1,1,1,1,0,1,1,0,0,0,0
29,RODRIGUEZ CAIDECO NICOLAS FELIPE,T.I.,1.003.657.724,Colombiano,Masculino,1101,Colombia,11/18/2001,Cundinamarca,Albán,1,1,1,0,0,0,0,0,Cundinamarca,25,Albán,25019,Urbana,Arboleda,0,,,,,,1,,,,,,,,,,,1,,,,,,,,2,"49,7",4,0,1,Baldosa,2,1,1,1,1,0,0,0,1,1,0,0,1,0,1,1,0,1,0,0,1 A 10,$2.484.348,4,3,2,5,3,0,3,0,0,0,3,0,0,0,2,2,0,0,Mecanico,Ama de casa,Ama de casa,Muy buena,"0,5",2,0,$0,1,1,1,1,1,1,0,0,0,1,0,0,0,0,0
30,ROJAS RIOS LAURA NATALI,T.I.,1.192.735.767,Colombiano,Femenino,1101,Colombia,9/13/2002,Cundinamarca,Albán,1,1,1,0,1,0,0,0,Cundinamarca,25,Albán,25019,Rural,0,Java,,,,,1,,,,,,,,,,,,,1,,,,,,,1,"35,61",3,2,1,Cemento,3,0,0,1,1,0,0,0,1,1,1,0,0,0,1,1,0,0,0,0,1 A 30,menos de 828.116,4,5,2,1,7,1,3,0,0,4,6,6,2,3,5,3,5,2,Operario de maquina,Ama de casa,Ama de casa,Buena,3,2,7,$0,0,0,1,1,0,1,0,1,0,1,0,0,0,1,0
31,SABOGAL ANACONA HEIDI,C.C.,1.003.640.569,Colombiano,Femenino,1101,Colombia,9/7/1999,Cundinamarca,Guayabal,0,0,1,0,0,0,0,0,Cundinamarca,25,Albán,25019,Rural,0,La maria,,,1,,,,,,,,,,,1,,,,,,,,,,,3,"44,74",4,1,1,Cemento,2,1,0,1,1,0,0,0,1,1,0,0,0,0,0,1,0,0,0,0,1 A 5,menos de 828.116,5,1,7,5,4,0,0,0,0,1,3,0,7,0,2,1,0,0,Oficios varios,Ama de casa,Ama de casa,Regular,1,1,7,$15.000,0,1,1,1,1,1,1,0,0,1,1,0,0,0,0
32,SANDOVAL REY PAULA GINETH,T.I.,1.003.657.662,Colombiano,Femenino,1101,Colombia,1/2/2003,Cundinamarca,Bogotá,1,1,1,0,0,0,0,0,Cundinamarca,25,Albán,25019,Rural,0,La maria,,,,1,,,,,,,,,,1,,,,,,,,,,,2,No tiene,2,1,1,Cemento,1,0,0,0,0,0,0,0,1,1,1,0,0,0,0,1,0,0,0,0,1 A 20,menos de 828.116,7,0,0,4,2,5,0,0,0,0,4,0,0,0,0,1,0,0,Guarda de seguridad,Oficios varios,Oficios varios,Buena,"0,5",4,0,$0,1,1,1,1,1,1,1,0,0,1,1,0,0,0,0
33,TRVIÑO LOPEZ NAISON GABRIEL,T.I.,1.003.566.605,Colombiano,Masculino,1101,Colombia,6/13/2002,Cundinamarca,Facatativá,0,1,1,0,1,0,0,0,Cundinamarca,25,Albán,25019,Urbana,El progreso,0,,,,,1,,,,,,,,,,,1,,,,,,,,,1,"42,72",4,1,1,Baldosa,2,0,0,0,1,0,0,1,1,1,1,0,0,0,0,0,0,0,0,0,1 A 30,$828.116,4,1,1,4,3,0,1,0,0,1,7,7,1,2,2,1,1,1,Conductor,Ama de casa,Ama de casa,Buena,15,2,0,$0,1,1,1,1,1,1,1,1,0,1,0,0,0,0,0
34,AREVALO OSORIO KEVIN ANDRES,T.I.,1.000.518.874,Colombiano,Masculino,1001,Colombia,8/29/2002,Cundinamarca,Bogotá,1,1,0,0,0,0,0,0,Cundinamarca,25,Albán,25019,Rural,0,Namay,,,1,,,,,,,,,,,,,1,,,,,,,,,2,"35,44",3,0,1,Cemento,3,0,1,1,1,0,0,0,1,1,0,0,0,0,1,1,1,0,0,0,1 A 5,$828.116,6,2,4,4,3,0,4,0,0,0,6,0,3,0,0,2,2,1,Maestro de obra,Ama de casa,Ama de casa,Buena,"0,5",3,7,$20.000,1,0,0,0,0,1,1,0,1,0,1,0,0,0,0
35,AVILA TRIANA NASLY VERONICA,T.I.,1.003.567.185,Colombiano,Femenino,1001,Colombia,2/5/2003,Cundinamarca,Facatativá,1,1,0,0,0,0,0,0,Cundinamarca,25,Albán,25019,Rural,0,Pantanillo,,,,,1,,,,,,,,,,,,,,1,,,,,,2,"37,44",4,1,0,Cemento,5,0,1,1,1,1,0,1,1,1,1,0,0,0,1,1,1,1,0,0,1 A 20,$1.656.232,7,7,7,6,6,0,7,0,0,3,7,2,7,1,4,2,2,2,Chalan,Ama de casa,Ama de casa,Buena,"0,5",4,0,$0,0,0,0,1,1,1,0,1,1,0,1,0,0,0,0
36,BEDON TORRES KEVIN SANTIAGO,T.I.,1.175.711.911,Colombiano,Masculino,1001,Colombia,9/2/2003,Cundinamarca,Facatativá,1,1,0,0,0,0,0,0,Cundinamarca,25,Albán,25019,Urbana,El progreso,0,,,,,,1,,,,,,,,,,1,,,,,,,,,2,No tiene,4,0,1,Baldosa,3,1,1,1,1,1,0,0,1,1,1,0,1,0,1,1,0,0,0,0,1 A 30,$1.656.232,7,4,7,7,7,1,7,3,1,2,7,2,7,4,3,2,3,5,Mecanico industrial,Ama de casa,Ama de casa,Buena,1,4,1,$25.000,0,0,0,0,1,0,1,0,1,0,1,0,0,0,0
37,BUITRAGO YEPES BRAYAN STIVEN,T.I.,1.003.658.672,Colombiano,Masculino,1001,Colombia,12/3/2002,Cundinamarca,Bituima,1,1,0,0,0,0,0,0,Cundinamarca,25,Albán,25019,Urbana,El progreso,0,,,,1,,,,,,,,,,1,,,,,,,,,,,2,"59,53",2,3,1,Cemento,2,0,1,0,0,0,0,0,0,0,0,0,0,0,1,1,0,0,0,0,1 A 20,menos de 828.116,5,3,1,2,3,0,1,0,0,1,6,1,1,0,1,3,3,2,Guarda de seguridad,Ama de casa,Ama de casa,Regular,1,"0,5",5,$20.000,1,0,0,0,0,0,1,1,0,1,0,0,1,0,0
38,CALLEJAS BERNAL YENNI YULENI,T.I.,1.010.153.975,Colombiano,Femenino,1001,Colombia,11/18/2001,Cundinamarca,Facatativá,,1,0,0,0,0,0,0,Cundinamarca,25,Albán,25019,Rural,0,Pantanillo,,,1,,,,,,,,,,,,1,,,,,,,,,,1,"19,16",2,2,4,Ladrillo,1,0,0,0,1,0,0,0,0,1,0,0,0,0,0,1,0,0,0,0,1 A 10,menos de 828.116,3,0,0,3,5,0,3,3,0,3,7,0,0,0,0,0,4,0,No tiene,Ama de casa,Ama de casa,Regular,1,3,0,$0,0,0,1,0,1,1,0,0,0,0,0,0,0,1,0
39,CRISTANCHO PARRA LEIDY KARINA,T.I.,1.072.592.025,Colombiano,Femenino,1001,Colombia,3/5/2004,Cundinamarca,Facatativá,1,1,0,0,0,0,0,0,Cundinamarca,25,Albán,25019,Rural,0,Garbanzal,,1,,,,,,,,,,,,,,,1,,,,,,,,1,"12,12",6,0,1,Cemento,5,0,1,0,1,1,0,0,1,1,0,0,1,0,0,1,0,0,0,0,1 A 20,$828.116,6,6,7,5,5,1,6,0,0,3,5,4,7,1,1,1,4,3,Oficios varios,Oficios varios,Oficios varios,Buena,"0,5",3,1,$10.000,0,0,0,0,0,0,0,1,1,0,1,0,0,1,0
40,FALLA CIFUENTES JAIDER ESTEVAN,T.I.,1.007.530.345,Colombiano,Masculino,1001,Colombia,10/27/2002,Tolima,Rovira,0,1,0,0,0,0,0,0,Cundinamarca,25,Albán,25019,Rural,0,Pantanillo,,1,,,,,,,,,,,,,,1,,,,,,,,,1,No tiene,4,1,0,Baldosa,3,0,1,0,1,1,0,0,1,1,0,1,,0,0,0,0,0,0,0,1 A 5,menos de 828.116,1,1,1,4,1,1,1,1,1,1,3,1,1,1,1,3,4,1,Cafetero,Doctora,Doctora,Insuficiente,"0,5",1,5,$10.000,0,0,0,1,1,1,0,1,1,0,1,0,0,0,0
41,FIALLO ESPINOSA WILSON ,T.I.,1.005.248.265,Colombiano,Masculino,1001,Colombia,3/22/2002,Santander,El playon,0,0,0,0,0,0,0,0,Cundinamarca,25,Albán,25019,Rural,0,Garbanzal,,,,,1,,,,,,,,,,,,1,,,,,,,,2,"32,24",5,0,1,Baldosa,2,1,0,1,1,0,0,0,1,1,0,0,1,0,1,0,0,0,0,0,1 A 10,$828.116,4,1,4,4,3,0,3,0,0,3,4,2,4,0,1,4,4,1,Administrador de finca,Ama de casa,Ama de casa,Buena,1,3,2,$15.000,0,1,0,1,1,0,0,0,0,1,0,0,0,1,0
42,GORDILLO CORTEZ DINA ALEJANDRA,T.I.,1.006.723.977,Colombiano,Femenino,1001,Colombia,9/27/2003,Guaviare,San jose,1,1,0,0,1,0,0,0,Cundinamarca,25,Albán,25019,Urbana,El progreso,0,1,,,,,,,,,,,,,,,,1,,,,,,,,2,"36,42",5,1,1,Baldosa,4,0,0,1,0,0,0,0,1,1,0,0,1,0,0,1,1,0,0,0,1 A 30,$2.484.348,7,2,1,7,4,0,3,0,0,2,3,2,2,0,0,1,1,1,Chatarrero,Agricultora,Agricultora,Buena,1,4,24,$15.000,1,0,0,0,0,1,1,1,1,0,1,0,0,0,0
43,HERNANDEZ FUERTEZ YEISON FERNEY,T.I.,1.007.159.179,Colombiano,Masculino,1001,Colombia,5/23/2003,Cundinamarca,Tocaima,0,0,0,0,0,0,0,0,Cundinamarca,25,Albán,25019,Rural,0,Sn rafael,,1,,,,,,,,,,,,1,,,,,,,,,,,2,"31,6",7,3,1,Ladrillo,3,1,0,1,1,0,0,0,1,1,1,0,0,0,0,0,0,0,0,0,1 A 10,$828.116,6,4,4,7,4,0,3,0,0,1,4,4,7,0,2,1,1,1,Ganaderia,Ama de casa,Ganaderia,Buena,"0,5",4,0,$0,0,1,1,0,0,0,0,1,1,0,1,0,0,0,0
44,INFANTE FLOREZ DAVID ANTONIO,T.I.,1.003.534.426,Colombiano,Masculino,1001,Colombia,10/28/2003,Cundinamarca,Facatativá,1,1,0,0,0,0,0,0,Cundinamarca,25,Albán,25019,Rural,0,Pantanillo,,,,1,,,,,,,,,,,,1,,,,1,,,,,2,"60,46",5,4,3,Baldosa,3,0,1,0,1,0,0,0,0,1,0,0,0,0,0,1,0,1,0,0,1 A 5,$1.656.232,7,2,0,7,0,0,7,0,0,0,7,0,0,0,0,2,1,0,Ninguna,Docente,Drogueria,Buena,1,3,7,$10.000,1,0,0,0,0,0,1,1,0,1,0,0,1,0,0
45,JIMENEZ HIGUERA BAIRON ARLEY,T.I.,1.003.657.698,Colombiano,Masculino,1001,Colombia,8/21/2001,Cundinamarca,Facatativá,1,1,0,0,0,0,0,0,Cundinamarca,25,Albán,25019,Urbana,El progreso,0,,,,,1,,,,,,,,,,,,1,,,,,,,,1,"31,04",4,0,2,Baldosa,2,1,0,0,1,0,0,0,1,1,1,1,0,0,1,1,1,0,0,0,1 A 5,$2.484.348,3,3,3,3,3,3,3,1,1,2,3,1,5,1,2,1,1,1,Codensa,Aseadora,Codensa,Muy buena,1,2,2,$20.000,0,0,0,1,1,1,1,1,1,0,1,0,0,1,0
46,LEMUS FUENTES RONAL STIVEN  ,T.I.,1.000.810.331,Colombiano,Masculino,1001,Colombia,6/17/2001,Cundinamarca,Bogotá,1,1,0,0,0,0,0,0,Cundinamarca,25,Albán,25019,Urbana,,,,,,,,,,1,,,,,,,,1,,,,,,,,,2,"69,99",2,0,0,Baldosa,6,1,0,1,1,1,1,0,1,1,0,0,0,0,0,0,0,0,0,0,1 A 30,menos de 828.116,7,0,0,4,3,0,0,0,0,0,6,0,0,0,2,1,1,1,No tiene,No tiene,Fundación,Buena,1,1,0,0,1,0,1,0,0,0,1,0,1,0,1,0,0,1,0
47,LEON RAMOS JUAN CARLOS,T.I.,1.003.657.768,Colombiano,Masculino,1001,Colombia,12/26/2003,Cundinamarca,Albán,1,1,0,0,0,0,0,0,Cundinamarca,25,Albán,25019,Rural,0,Garbanzal,,,1,,,,,,,,,,,,1,,,,,,,,,,1,"38,97",3,0,3,Baldosa,2,0,0,0,1,0,0,0,1,1,0,0,0,0,0,1,0,0,0,0,1 A 30,menos de 828.116,7,0,0,4,3,0,0,0,0,0,6,0,2,0,2,1,4,1,Maestro de obra,Madre sustituta,Madre sustituta,Regular,1,2,0,$0,0,1,0,0,1,0,1,1,0,0,0,0,1,1,0
48,OVALLE RIVEROS NASLY HASBLEYDY,T.I.,1.003.565.700,Colombiano,Femenino,1001,Colombia,8/18/2001,Cundinamarca,Facatativá,1,1,0,0,0,0,0,0,Cundinamarca,25,Albán,25019,Rural,0,Los alpes,,,,1,,,,,,,,,,1,,,,,,,,,,,1,No tiene,5,1,0,Baldosa,3,0,1,1,1,0,1,0,1,1,0,0,0,0,1,1,0,1,1,0,1 A 10,menos de 828.116,7,4,4,5,5,0,4,0,0,1,7,0,4,0,0,2,2,1,Independiente,Independiente,Independiente,Buena,"0,5",3,1,$0,0,1,1,1,1,1,1,0,0,1,1,0,0,0,0
49,PRIETO CORTEZ YENIFER LORENA,T.I.,1.003.658.706,Colombiano,Femenino,1001,Colombia,9/15/2003,Cundinamarca,Bituima,1,1,0,0,0,0,0,0,Cundinamarca,25,Albán,25019,Rural,0,Garbanzal,1,,,,,,,,,,,,,,,1,,,,,,,,,1,"20,59",3,1,0,Cemento,3,0,0,0,1,0,0,0,0,1,0,0,0,0,0,1,0,0,0,0,1 A 30,menos de 828.116,7,5,0,0,0,0,6,0,0,0,7,4,3,0,0,0,2,0,Maestro de obra,Ama de casa,Ama de casa,Buena,"0,5","0,5",1,$0,1,1,1,1,1,0,0,0,0,0,0,0,0,0,0
50,QUIROGA BAREÑO DANIEL STIVEN,T.I.,1.101.752.646,Colombiano,Masculino,1001,Colombia,7/13/2004,Santander,Velez,1,1,0,0,0,0,0,0,Cundinamarca,25,Albán,25019,Rural,0,Garbanzal,,,,1,,,,,,,,,,,1,,,,,,,,,,2,"57,3",5,1,1,Cemento,5,0,1,0,0,0,0,1,1,1,1,0,0,0,0,1,1,1,0,0,1 A 10,$1.656.232,3,0,0,1,0,0,0,0,0,0,3,0,0,0,0,0,4,0,Avicultor,Ama de casa,Avicultor,Buena,"0,5","0,5",3,$0,0,0,0,0,0,0,0,1,0,0,0,0,0,0,0
51,RAMOS MONROY DIANA MARIA,T.I.,1.003.657.737,Colombiano,Femenino,1001,Colombia,5/31/2002,Cundinamarca,Albán,1,1,0,0,0,0,0,0,Cundinamarca,25,Albán,25019,Rural,0,Garbanzal,,,,,1,,,,,,,,,,,,1,,,,,,,,1,"17,58",8,4,3,Cemento,3,0,0,1,1,0,1,0,1,1,1,0,0,0,1,0,0,0,0,0,1 A 20,menos de 828.116,5,3,4,7,7,2,7,1,0,4,7,4,4,5,5,6,4,1,Maestro de obra,Ama de casa,Ama de casa,Regular,2,1,1,$10.000,1,1,1,1,1,0,0,0,0,0,0,0,0,0,0
52,RINCON TRIANA HAROLD STEVEN,T.I.,1.192.742.433,Colombiano,Masculino,1001,Colombia,10/15/2003,Cundinamarca,Facatativá,,1,0,0,0,0,0,0,Cundinamarca,25,Albán,25019,Rural,0,Pantanillo,,,,1,,,,,,,,,,,,1,,,,,,,,,2,"56,4",4,0,2,Baldosa,3,0,1,0,1,1,0,0,1,1,0,1,0,0,1,0,0,0,0,0,1 A 10,menos de 828.116,2,7,0,0,0,1,3,0,0,0,5,1,5,0,0,0,3,1,Arquitecto,Ama de casa,Ama de casa,Buena,1,1,3,$10.000,0,0,1,0,0,0,0,0,0,0,0,0,0,0,1
53,ROA CAMELO VERONICA ALEXANDRA,T.I.,1.070.943.333,Colombiano,Femenino,1001,Colombia,5/27/2004,Cundinamarca,Facatativá,1,1,0,0,0,0,0,0,Cundinamarca,25,Albán,25019,Urbana,La esperanza,0,1,,,,,,,1,,,,,,,,,,,,1,,,,,2,"46,23",3,1,0,Baldosa,3,0,0,1,1,1,0,0,0,1,1,0,0,0,1,1,0,0,0,0,1 A 10,$2.484.348,7,5,6,5,7,0,0,0,0,0,5,6,7,0,7,0,0,0,Ecopetrol,Regente de farmacia,Regente de farmacia,Buena,"0,5",3,0,$0,1,0,1,1,0,0,1,0,1,0,1,0,0,1,1
54,RODRIGUEZ MESA VANESA ALEXANDRA,T.I.,1.192.723.409,Colombiano,Femenino,1001,Colombia,12/14/2001,Cundinamarca,Albán,1,1,0,0,0,0,0,0,Cundinamarca,25,Albán,25019,Urbana,Arboleda,0,,1,,,,,,,,,,,,,1,,,,,,,,,,1,"29,76",4,1,3,Cemento,3,1,0,0,0,0,0,0,1,1,1,0,1,0,1,1,1,1,1,0,1 A 20,$828.116,1,1,5,7,7,7,7,7,7,7,7,5,5,4,3,7,7,7,Maestro de obra,Ama de casa,Ama de casa,Buena,3,4,7,$15.000,1,0,0,0,0,0,1,1,0,1,0,0,1,0,0
55,SANTANA MOLINA DAVID FELIPE,T.I.,1.072.592.017,Colombiano,Masculino,1001,Colombia,2/19/2004,Cundinamarca,Albán,1,1,0,0,0,0,0,0,Cundinamarca,25,Albán,25019,Urbana,La gruta,0,,,,1,,,,,,,,,,,,,,,,1,,,,,2,No tiene,4,1,0,Baldosa,4,0,1,1,1,0,0,0,1,1,1,0,0,0,1,1,1,1,0,0,1 A 20,$1.656.232,7,5,5,6,3,0,5,0,0,1,6,3,2,0,2,3,1,1,Independiente,Docente,Docente,Buena,"0,5",1,0,$0,1,1,1,0,1,0,0,1,0,0,0,0,0,1,1
56,BALLESTEROS ZARATE KEVIN JAVIER,T.I.,1.071.062.318,Colombiano,Masculino,1002,Colombia,10/17/2004,Cundinamarca,Girardot,0,1,0,0,1,0,0,0,Cundinamarca,25,Albán,25019,Urbana,La esperanza,0,,,,1,,,,,,,,,,,,1,,,,,,,,,2,"15,22",6,1,2,Cemento,3,1,1,0,1,0,0,0,1,1,1,0,0,0,1,1,0,0,0,0,1 A 20,$2.484.348,7,3,2,2,1,0,2,0,0,1,5,2,2,0,1,1,1,1,Policia,Ama de casa,Ama de casa,Buena,2,3,0,$0,1,1,1,1,1,0,1,1,1,0,0,0,0,0,
57,BARRETO CAMARGO FRANKLIN FERNANDO,T.I.,1.192.723.434,Colombiano,Masculino,1002,Colombia,1/6/2002,Cundinamarca,Sasaima,1,1,0,0,0,0,0,0,Cundinamarca,25,Albán,25019,Urbana,El progreso,0,,1,,,,,,,,,,,,,,1,,,,,,,,,2,"49,11",4,0,1,Baldosa,2,0,0,1,1,0,0,0,1,1,1,0,0,0,1,1,1,0,0,0,1 A 30,$828.116,4,3,2,4,6,0,2,0,0,3,6,3,0,0,5,3,2,2,Comerciante,Comerciante,Comerciante,Buena,1,"0,5",7,$10.000,1,1,1,0,1,0,0,1,1,0,1,0,0,0,0
58,BERMUDEZ DIAZ SEBASTIAN DAVID,T.I.,1.070.385.127,Colombiano,Masculino,1002,Colombia,9/27/2004,Cundinamarca,Facatativá,1,1,0,0,0,0,0,0,Cundinamarca,25,Albán,25019,Rural,0,La maria,,,,1,,,,,,,,,,,,1,,,,,,,,,2,"22,98",5,1,1,Baldosa,3,1,1,0,1,1,0,1,1,1,0,0,1,0,1,1,0,1,1,0,1 A 5,$1.656.232,4,1,3,2,3,0,1,0,0,0,6,0,0,0,0,3,1,0,Comerciante,Comerciante,Comerciante,Buena,"0,5",3,2,$0,0,0,0,0,1,0,0,0,0,0,1,0,0,1,1
59,BERNAL CAICEDO KEVIN ANDREY,T.I.,1.003.657.873,Colombiano,Masculino,1002,Colombia,11/19/2003,Cundinamarca,Facatativá,1,1,0,0,0,0,0,0,Cundinamarca,25,Albán,25019,Rural,0,La maria alta,,,,,,1,,,,,,,,,,1,,,,,,,,,2,"50,92",9,0,1,Madera pulida,4,0,1,1,1,1,0,0,0,1,0,0,1,0,1,1,0,1,0,0,1 A 10,menos de 828.116,7,1,1,5,4,0,4,0,0,1,7,1,1,0,1,1,2,0,Electricista,Ama de casa,Ama de casa,Regular,1,2,1,$5.000,1,0,1,0,1,0,1,0,0,1,0,0,0,0,0
60,BUITRAGO LUQUE JENNY PAOLA,T.I.,1.003.510.663,Colombiano,Femenino,1002,Colombia,1/14/2003,Cundinamarca,Facatativá,1,1,0,0,0,0,0,0,Cundinamarca,25,Albán,25019,Rural,0,El entable,,1,,,,,,,,,,,,,,1,,,,,,,,,2,"12,25",6,1,0,Baldosa,2,0,0,1,1,0,0,0,1,1,0,0,0,0,0,1,1,0,0,0,1 A 5,menos de 828.116,6,2,2,4,5,0,1,0,0,3,5,2,1,1,2,3,2,3,Administrador de finca,Ama de casa,Ama de casa,Regular,1,4,2,$25.000,0,1,1,0,0,0,0,0,0,0,0,0,0,1,0
61,CASTILLO PARRA DANNA VALENTINA,T.I.,1.010.153.968,Colombiano,Femenino,1002,Colombia,11/17/2001,Cundinamarca,Bogotá,0,1,0,0,0,0,0,0,Cundinamarca,25,Albán,25019,Urbana,La esperanza,0,,,,1,,,,,,,,,,,,,,,1,,,,,,2,"43,41",8,0,3,Baldosa,5,0,0,1,1,1,0,1,1,1,0,0,1,0,0,1,0,0,0,0,1 A 20,$1.656.232,7,4,3,2,5,0,0,0,0,2,2,2,4,0,2,0,0,0,Conductor,Secretaria,Secretaria,Buena,1,3,0,$0,1,1,1,1,1,1,0,1,0,0,0,0,0,0,0
62,CASTILLO QUEVEDO CARLOS SANTIAGO,T.I.,1.070.942.367,Colombiano,Masculino,1002,Colombia,2/21/2004,Cundinamarca,Facatativá,1,1,0,0,0,0,0,0,Cundinamarca,25,Albán,25019,Urbana,El progreso,0,,,,,,,1,,,,,,,,,,,,,,,,1,,2,"61,76",4,1,2,Baldosa,2,1,1,1,1,0,0,0,1,1,1,0,1,0,1,1,1,1,0,0,1 A 10,$1.656.232,7,3,3,4,3,0,3,0,0,0,5,1,1,0,0,1,1,1,Independiente sonido,Asesora contable,Independiente sonido,Buena,1,3,7,$25.000,1,1,1,1,1,1,1,1,0,1,0,1,0,1,0
63,CORDOBA DUARTE DEISY JULIANA,T.I.,1.007.086.507,Colombiano,Femenino,1002,Colombia,8/30/2003,Cundinamarca,Silvania,0,1,0,0,0,0,0,0,Cundinamarca,25,Albán,25019,Rural,0,Namay bajo,,,1,,,,,,,,,,,,1,,,,,,,,,,1,"35,67",3,1,3,Baldosa,2,0,1,0,1,1,0,0,0,1,0,0,0,0,1,1,0,0,0,0,1 A 30,menos de 828.116,7,3,3,3,2,0,4,0,0,0,3,2,0,0,0,1,1,1,Ayudante de construcciòn,Oficios varios,Oficios varios,Regular,"0,5",2,1,$3.000,1,0,0,0,0,0,0,0,0,1,0,0,1,1,0
64,CRUZ RODRIGUEZ DIEGO ANDRES,T.I.,1.003.657.765,Colombiano,Masculino,1002,Colombia,11/12/2003,Cundinamarca,Facatativá,1,1,0,0,0,0,0,0,Cundinamarca,25,Albán,25019,Urbana,Esmeralda,0,,,,1,,,,,,,,,,,,,,1,,,,,,,2,"34,39",4,1,0,Cemento,2,0,0,0,1,1,0,0,1,1,0,0,1,0,1,1,0,0,1,0,1 A 20,$828.116,0,2,0,5,4,0,0,0,0,0,7,0,0,0,2,3,1,0,Conductor,Promotora de salud,Promotora de salud,Buena,1,1,2,$10.000,1,0,1,0,0,0,1,0,1,0,1,0,0,1,0
65,FERNANDEZ DIANA CAROLINA ,T.I.,1.000.574.975,Colombiano,Femenino,1002,Colombia,4/23/2003,Cundinamarca,Bogotá,0,1,0,0,0,0,0,0,Cundinamarca,25,Albán,25019,Rural,0,Namay bajo,1,,,,,,,,,,,,,,1,,,,,,,,,,2,"24,96",4,1,2,Cemento,2,0,0,0,1,0,0,0,0,1,0,0,0,0,1,1,0,0,0,0,1 A 30,menos de 828.116,7,3,3,2,2,0,3,0,0,3,4,1,2,0,0,1,1,1,Oficios varios,Oficios varios,Oficios varios,Regular,"0,5",2,2,$10.000,1,1,0,0,0,0,0,0,0,1,0,0,0,1,0
66,FORERO ORDOÑEZ LAURA VALENTINA,T.I.,1.003.534.256,Colombiano,Femenino,1002,Colombia,9/19/2003,Cundinamarca,Facatativá,1,1,0,0,0,0,0,0,Cundinamarca,25,Albán,25019,Rural,0,Guayacundo,,1,,,,,,,,,,,,1,,,,,,,,,,,2,"29,73",8,4,0,Baldosa,4,0,0,1,1,1,0,0,1,1,1,0,0,0,0,1,1,0,0,0,1 A 20,$828.116,5,3,3,5,5,0,3,0,0,0,7,2,3,2,2,3,3,3,Agropecuario,Ama de casa,Ama de casa,Buena,"0,5",2,2,$0,0,0,0,1,1,0,0,0,1,0,1,0,0,0,0
67,JIMENEZ HIGUERA MAICOL ANDREY,T.I.,1.003.657.699,Colombiano,Masculino,1002,Colombia,5/5/2003,Cundinamarca,Facatativá,1,1,0,0,0,0,0,0,Cundinamarca,25,Albán,25019,Urbana,El progreso,0,,,,,1,,,,,,,,,,,,1,,,,,,,,2,"31,04",3,0,2,Baldosa,2,1,0,0,1,0,0,0,0,1,1,0,0,0,0,1,0,0,0,0,1 A 5,$828.116,3,1,0,2,2,0,2,0,0,0,5,0,2,0,0,0,1,0,Conductor,Ama de casa,Ama de casa,Regular,"0,5",4,0,$0,0,0,0,0,0,0,0,1,1,0,0,0,1,0,0
68,MAPARI PALACIO ANA KARIS,T.I.,1.124.059.849,Colombiano,Femenino,1002,Colombia,12/19/2002,Guajira,Maicao,0,0,0,0,0,0,Wayúu,0,Cundinamarca,25,Albán,25019,Rural,0,Los alpes,1,,,,,,,,,,,,1,,,,,,,,,,,,2,"32,73",6,3,6,Cemento,3,0,0,0,0,0,0,0,0,1,0,0,0,0,0,1,0,0,0,0,1 A 5,menos de 828.116,7,0,0,3,4,0,1,0,0,3,6,2,5,0,0,4,4,3,Comerciante,Artesania,Agicultura,Regular,"0,5","0,5",2,$5.000,1,1,0,0,0,1,0,1,0,1,0,1,0,1,0
69,MARTINEZ LAGOS ANGEL MAURICIO,T.I.,1.072.592.002,Colombiano,Masculino,1002,Colombia,1/10/2001,Cundinamarca,Facatativá,0,0,0,0,0,0,0,0,Cundinamarca,25,Albán,25019,Urbana,La gruta,0,,1,,,,,,,,,,,,,,1,,,,,,,,,2,No tiene,3,1,1,Cemento,2,0,0,0,1,0,0,0,0,1,0,0,0,0,1,1,0,1,1,0,1 A 10,$828.116,5,1,2,3,3,0,1,0,0,1,5,2,4,0,2,1,1,1,Conductor,Ama de casa,Ama de casa,Buena,1,1,2,$5.000,0,0,1,0,0,0,1,0,1,0,1,0,0,1,1
70,MARTINEZ VELASQUEZ DEIVER SANTIAGO,T.I.,1.036.557.767,Colombiano,Masculino,1002,Colombia,11/14/2003,Cundinamarca,Albán,1,1,0,0,0,0,0,0,Cundinamarca,25,Albán,25019,Rural,0,Los alpes,,,,,1,,,,,,,,,,,1,,,,,,,,,1,No tiene,6,2,2,Baldosa,4,0,1,0,1,0,0,0,1,1,0,0,0,0,0,1,0,0,0,0,1 A 10,$828.116,7,2,1,6,3,0,3,0,0,0,4,1,1,0,3,3,2,1,Cargar abono,Peluqueria,Plaza ,Regular,1,2,7,$10.000,1,0,0,0,0,0,1,1,0,0,0,0,0,0,0
71,MORALES MORALES CRISTIAN ALDEMAR,T.I.,1.037.720.574,Colombiano,Masculino,1002,Colombia,2/24/2004,Cundinamarca,Bogotá,0,0,0,0,0,0,0,0,Cundinamarca,25,Albán,25019,Rural,0,Los alpes,,1,,,,,,,,,,,,1,,,,,,,,,,,1,No tiene,3,0,2,Baldosa,2,0,0,1,1,0,0,0,1,1,0,0,0,0,1,1,0,1,0,0,1 A 30,$828.116,2,0,0,7,3,0,0,0,0,0,5,0,3,0,0,5,4,3,Concejal,Ama de casa,Ama de casa,Buena,"0,5",3,4,$25.000,0,0,0,0,1,0,0,1,0,0,0,0,0,0,0
72,MUÑOZ ANGEL LUISA FERNANDA,T.I.,1.003.535.012,Colombiano,Femenino,1002,Colombia,1/6/2003,Cundinamarca,Facatativá,1,1,0,0,0,0,0,0,Cundinamarca,25,Facatativá,25269,Rural,0,La tribuna,,,1,,,,,,,,,,,,1,,,,,,,,,,2,"30,25",7,6,0,Cemento,3,0,0,0,1,0,0,0,1,1,0,0,0,0,0,1,0,0,0,0,1 A 5,menos de 828.116,7,2,3,6,3,0,0,0,0,0,3,3,0,0,0,1,1,0,Oficios varios,Ama de casa,Ama de casa,Buena,1,3,0,$0,1,1,1,1,1,1,0,1,0,0,1,0,0,0,0
73,OMAÑA DUARTE DARIANNA ZARAI,T.I.,28.145.328,Venezolano,Femenino,1002,Colombia,4/24/2000,Zulia,San francisco,0,0,0,0,0,0,0,0,Cundinamarca,25,Albán,25019,,,,,,,1,,,,,,,,,,,,,,,1,,,,,,2,No tiene,4,1,0,Cemento,2,0,1,1,0,0,0,0,0,0,1,0,0,0,0,1,0,0,1,0,1 A 5,$828.116,3,7,2,0,7,0,7,0,0,0,7,2,3,0,0,3,4,0,Soldador,Ama de casa,Ama de casa,Buena,"0,5",4,2,$25.000,0,0,0,0,0,1,0,1,0,1,0,0,0,0,1
74,RAMIREZ RODRIGUEZ MAYLIN,T.I.,1.193.126.068,Colombiano,Femenino,1002,Colombia,2/28/2003,Cundinamarca,Facatativá,1,1,0,0,0,0,0,0,Cundinamarca,25,Albán,25019,Rural,0,Pantanillo,,1,,,,,,,,,,,,,,1,,,,,,,,,2,"20,43",3,0,2,tabla o tablon,2,0,0,0,1,0,0,0,0,1,0,0,0,0,0,1,0,1,0,0,1 A 10,menos de 828.116,3,2,1,4,5,0,3,0,0,2,3,0,4,1,1,1,1,1,Maestro de obra,Ama de casa,Ama de casa,Buena,1,2,2,$0,0,0,1,0,1,0,0,1,1,0,1,0,0,0,0
75,RODRIGUEZ RAMIREZ BRANDON NICOLAS,T.I.,1.007.438.405,Colombiano,Masculino,1002,Colombia,4/5/2001,Cundinamarca,Facatativá,0,0,0,0,0,0,0,0,Cundinamarca,25,Facatativá,25269,Rural,0,La tribuna,,,,1,,,,,,,,,,,,1,,,,,,,,,2,No tiene,6,3,4,Baldosa,4,0,1,0,1,1,1,0,1,1,1,1,0,0,1,1,1,0,0,0,1 A 30,$828.116,1,4,5,3,2,0,3,0,0,1,5,2,0,3,4,1,2,2,NO TIENE,Ama de casa,Ama de casa,Buena,1,4,4,$5.000,0,0,0,0,0,0,0,0,1,0,1,0,0,0,1
76,ROMERO ROMERO EVA YISETH,T.I.,1.003.913.054,Colombiano,Femenino,1002,Colombia,5/3/2002,Cundinamarca,Villa pinzon0,1,1,0,0,0,0,0,0,Cundinamarca,25,Albán,25019,Rural,0,La maria,,,1,,,,,,,,,,,,1,,,,,,,,,,2,No tiene,2,0,1,Cemento,2,0,1,0,0,0,0,0,1,1,0,0,0,0,0,1,1,0,0,0,1 A 20,$828.116,7,0,0,0,7,0,0,0,0,0,5,7,0,0,0,4,4,3,NO TIENE,Coovendedor empaque,Coovendedor empaque,Regular,"0,5",2,0,$0,1,1,1,1,1,0,0,0,1,0,1,0,0,0,0
77,ROSALES REVEROL DIOMAR ELOY,T.I.,0,Venezolano,Masculino,1002,Colombia,9/3/2002,Maracaibo,San francisco,0,0,0,0,0,0,0,0,Cundinamarca,25,Albán,25019,Rural,0,Java,,,,,1,,,,,,,,,,,,,,,,1,,,,2,No tiene,5,2,0,Cemento,2,0,1,0,0,0,0,0,0,1,0,0,0,0,0,0,0,0,0,0,1 A 5,menos de 828.116,7,7,1,3,3,0,0,0,0,0,4,3,2,0,1,1,2,2,Celador,Restaurante,Restaurante,Regular,1,1,1,0,0,0,0,1,0,1,1,0,0,1,0,0,1,0,0
78,SANDOVAL COLORADO BRAYAN ESTEBAN,T.I.,1.003.657.757,Colombiano,Masculino,1002,Colombia,6/14/2003,Cundinamarca,Facatativá,1,1,0,0,0,0,0,0,Cundinamarca,25,Albán,25019,Urbana,La esmeralda,0,,,,,1,,,,,,,,,,,,1,,,,,,,,2,"57,7",5,1,0,Baldosa,4,1,1,1,1,0,0,0,1,1,0,0,1,0,1,1,0,1,0,0,1 A 10,$828.116,7,1,0,4,3,0,2,2,0,0,5,4,0,0,0,4,0,0,Bomba brio,Educadora,Educadora,Buena,0,3,0,$0,0,0,0,0,0,0,1,0,1,0,1,0,0,1,1
,,,,,,,,,,,,,,,,,,,,,,,,,,,,,,,,,,,,,,,,,,,,,,,,,,,,,,,,,,,,,,,,,,,,,,,,,,,,,,,,,,,,,,,,,,,,,,,,,,,,,,,,,,,,,,,,,,,,,,
80,ALVAREZ GUZMAN MARIA FERNANDA,T.I.,1.110.458.097,Colombiano,Femenino,901,Colombia,2/9/2005,Tolima,Ibague,1,1,0,0,0,0,0,0,Cundinamarca,25,Albán,25019,Rural,0,Los alpes bajos,,,1,,,,,,,,,,,,,1,,,,,,,,,2,"33,48",6,0,3,Cemento,1,0,0,1,1,0,0,1,0,1,0,0,1,0,0,0,1,0,0,0,1 A 20,menos de 828.116,6,1,2,3,1,0,1,0,0,3,6,0,4,0,1,1,1,0,Oficios varios,Oficios varios,Oficios varios,Buena,"0,5",3,0,$0,1,1,1,1,1,1,0,1,0,1,0,0,0,0,0
81,AVILA TRIANA INGRID XIMENA,T.I.,1.070.944.518,Colombiano,Femenino,901,Colombia,3/1/2002,Cundinamarca,Facatativá,0,1,0,0,0,0,0,0,Cundinamarca,25,Albán,25019,Rural,0,Pantanillo,,1,,,,,,,,,,,,,,1,,,,,,,,,1,"37,44",4,1,0,Cemento,5,0,1,0,0,0,0,0,0,1,1,0,0,0,0,0,1,0,0,0,1 A 20,menos de 828.116,1,1,1,2,1,1,0,0,0,0,1,1,1,0,0,0,1,1,Chalan,Ama de casa,Ama de casa,Muy buena,"0,5",1,0,$0,1,0,0,1,1,0,0,0,0,1,0,1,0,0,0
82,BELTRAN PENAGOS ANGIE DANIELA,T.I.,100.657.903,Colombiano,Femenino,901,Colombia,12/8/2002,Cundinamarca,Facatativá,1,1,0,0,0,0,0,0,Cundinamarca,25,Albán,25019,Rural,0,La maria alta,,,,1,,,,,,,,,,,,1,,,,,,,,,1,No tiene,5,3,3,Tabla o tablon,3,0,1,1,1,0,1,0,1,1,0,0,0,0,1,0,,0,0,0,1 A 5,$1.656.232,7,4,7,5,0,0,1,0,0,0,3,1,4,0,5,4,2,4,Conductor,Ayudante de venta,Ayudante de venta,Buena,"0,5",3,1,$0,1,1,0,1,1,0,1,0,0,0,0,1,0,0,0
83,BERNAL DUARTE KEVIN ANDRES,T.I.,1.070.384.407,Colombiano,Masculino,901,Colombia,3/26/2004,Cundinamarca,Facatativá,1,1,0,0,0,0,0,0,Cundinamarca,25,Albán,25019,Rural,0,Namay,,1,,,,,,,,,,,,1,,,,,,,,,,,1,"34,94",3,2,1,Cemento,4,1,0,0,1,1,0,0,1,1,1,0,0,0,,0,1,0,0,0,1 A 5,menos de 828.116,5,2,1,4,4,0,4,0,0,0,0,2,0,0,0,2,1,1,Agricultor,Ama de casa,Ama de casa,Buena,"0,5",3,0,$0,1,1,1,0,0,1,0,1,0,0,0,0,1,0,0
84,CARDENAS SALCEDO JONATHAN EMIR,T.I.,1.070.385.760,Colombiano,Masculino,901,Colombia,4/14/2005,Cundinamarca,Facatativá,1,1,0,0,0,0,0,0,Cundinamarca,25,Albán,25019,Rural,0,la maria  ,,,,,,1,,,,,,,,1,,,,,,,,,,,2,No tiene,4,1,2,Baldosa,2,1,0,1,1,1,0,1,1,1,0,0,1,0,1,0,1,1,0,0,1 A 30,$1.656.232,5,2,1,6,4,0,5,0,0,1,5,1,3,0,0,1,1,0,Auxiliar de enfermeria,Ama de casa,Ama de casa,Buena,0,3,0,$0,1,1,0,1,0,1,0,1,0,1,0,1,0,0,0
85,CARDONA PAMPLONA DIEGO ALEJANDRO,T.I.,1.000.218.832,Colombiano,Masculino,901,Colombia,9/10/2002,Cundinamarca,Bogotá,1,1,0,0,0,0,0,0,Cundinamarca,25,Albán,25019,Urbana,Guayabal de siquima,0,,1,,,,,,,,,,,,1,,,,,,,,,,,2,"50,17",3,3,1,Baldosa,3,0,0,1,1,1,1,0,1,1,1,1,1,0,1,1,0,0,0,0,1 A 30,$2.484.348,5,4,5,7,7,4,6,2,3,6,7,2,7,7,1,6,4,7,Independiente,Independiente,Independiente,Buena,"0,5",4,16,$0,1,0,0,1,1,1,1,1,0,1,0,0,1,0,0
86,CRUZ ESPINEL ANGEL MAURICIO,T.I.,1.072.592.040,Colombiano,Masculino,902,Colombia,4/12/2004,Cundinamarca,Albán,1,1,0,0,0,0,0,0,Cundinamarca,25,Albán,25019,Urbana,El progreso,0,,,,,1,,,,,,,,,,,,1,,,,,,,,2,"46,95",6,2,3,Baldosa,4,1,0,1,1,1,1,1,1,1,0,0,1,0,1,0,0,0,1,0,1 A 20,$828.116,7,2,1,3,3,1,2,1,0,0,5,2,7,1,4,2,2,1,Conductor de volqueta,Ama de casa,Ama de casa,Buena,"0,5",2,0,$0,1,0,1,1,1,1,0,1,0,1,1,1,0,1,1
87,ESPITIA AGUDELO SAMUEL ANDRES,T.I.,1.072.592.147,Colombiano,Masculino,901,Colombia,1/27/2005,Cundinamarca,Albán,1,1,0,0,0,0,0,0,Cundinamarca,25,Albán,25019,Urbana,La esmeralda,0,,,,1,,,,,,,,,,,,,,,,,1,,,,2,"33,33",4,3,0,Baldosa,,0,0,1,1,1,0,0,1,1,0,0,1,0,1,1,0,1,0,0,1 A 5,$2.484.348,7,2,4,4,6,1,4,0,0,3,5,2,4,1,1,1,1,1,Operario de la alcaldia,Profesora,Profesora,Buena,"0,5",3,1,$3.000,1,1,1,1,1,1,0,1,0,0,1,0,1,0,0
88,ESPITIA GOMEZ MARY ISABEL,T.I.,1.070.780.144,Colombiano,Femenino,901,Colombia,8/29/2004,Cundinamarca,Facatativá,1,1,0,0,0,0,0,0,Cundinamarca,25,Sasaima,25718,Rural,0,Namay bajo,,,,1,,,,,,,,,,,1,,,,,,,,,,2,"20,82",3,3,7,Cemento,2,0,0,0,1,0,0,0,0,0,0,0,0,0,,1,0,1,0,0,1 A 30,$828.116,7,4,5,6,3,0,4,0,1,0,6,1,1,1,2,1,1,1,Maestro de obra,Oficios varios,Oficios varios,Buena,"0,5",3,0,$0,1,1,1,1,1,1,0,1,0,1,0,0,1,0,0
89,GUAIDIA COLMENARES JUAN PABLO,T.I.,1.003.657.728,Colombiano,Masculino,901,Colombia,2/9/2008,Cundinamarca,Albán,1,1,0,0,0,0,0,0,Cundinamarca,25,Albán,25019,Rural,0,Java,1,,,,,,,,,,,,,1,,,,,,,,,,,3,"28,25",3,0,0,Baldosa,3,1,0,0,1,1,0,0,1,1,1,0,1,0,1,1,0,0,0,0,1 A 5,menos de 828.116,7,3,5,2,5,0,1,0,0,0,0,0,5,0,3,1,1,0,No tiene,Ama de casa,Ama de casa,Buena,"0,5","0,5",2,$10.000,1,1,1,1,0,1,0,0,0,1,0,0,0,0,0
90,MARTINEZ CASTRO SANDRA VANESSA,T.I.,1.072.592.133,Colombiano,Femenino,901,Colombia,12/1/2004,Cundinamarca,Facatativá,1,1,0,0,0,0,0,0,Cundinamarca,25,Albán,25019,Urbana,La esperanza,0,1,,,,,,,,,,,,,,,,,,,1,,,,,1,"52,77",3,0,1,Baldosa,,1,1,1,1,0,1,0,1,0,0,0,0,0,1,1,0,0,0,0,1 A 5,$1.656.232,6,4,7,5,5,0,5,0,0,0,6,2,3,0,7,3,3,0,No tiene,Secretaria de personeria,Secretaria de personeria,Muy buena,"0,5",3,0,$0,1,0,0,0,0,0,0,1,0,1,1,0,0,0,0
91,MONCADA FORERO EAN GABRIEL ORLANDO,T.I.,1.020.551.229,Colombiano,Masculino,901,Colombia,4/19/2004,Cundinamarca,Bogotá,1,1,0,0,0,0,0,0,Cundinamarca,25,Albán,25019,Urbana,0,Fundación niña maria,1,,,,,,,,,,,,,,,,1,,,,,,,,2,No tiene,,0,1,Baldosa,,1,1,1,1,1,1,0,1,1,0,0,0,0,0,0,0,0,0,0,1 A 30,$0,7,7,7,7,7,0,0,0,0,0,7,7,2,0,0,1,2,1,No tiene,No tiene,No tiene,No tiene,0,0,0,$0,1,1,1,0,1,1,0,1,0,1,1,0,0,1,0
92,MORA MUÑOZ VALERY DAYANA,T.I.,1.072.592.039,Colombiano,Femenino,901,Colombia,5/31/2004,Cundinamarca,Bogotá,1,1,0,0,0,0,0,0,Cundinamarca,25,Albán,25019,Rural,0,Pantanillo,,,1,,,,,,,,,,,,,,1,,,,,,,,1,"36,18",2,0,2,Baldosa,2,0,0,0,1,1,0,0,1,1,1,0,0,0,0,1,0,1,0,0,1 A 10,$828.116,7,2,1,5,2,0,2,0,0,1,7,2,0,3,1,2,1,1,Empleado,Ama de casa,Ama de casa,Buena,1,3,0,$0,1,1,1,1,1,1,1,0,1,1,0,0,0,0,0
93,MORENO CAMELO YUDY ALEJANDRA,T.I.,1.003.657.901,Colombiano,Femenino,901,Colombia,3/25/2003,Cundinamarca,Facatativá,1,0,0,0,1,0,0,0,Cundinamarca,25,Albán,25019,Rural,0,Los alpes,,,1,,,,,,,,,,,,1,,,,,,,,,,2,"18,79",6,2,1,Cemento,1,0,0,0,0,0,0,0,0,1,0,0,0,0,0,1,0,0,0,0,1 A 30,menos de 828.116,7,0,0,0,3,0,0,0,0,0,7,0,0,0,0,2,1,1,Avicola,Avicola,Avicola,Insuficiente,"0,5",0,3,$25.000,0,1,1,0,0,1,0,0,0,0,0,0,1,0,0
94,PARRA GARAY YEIBER EDISON,T.I.,1.003.690.289,Colombiano,Masculino,901,Colombia,8/1/2003,Cundinamarca,Albán,1,1,0,0,0,0,0,0,Cundinamarca,25,Albán,25019,Rural,0,Namay alto,,1,,,,,,,,,,,,,,,1,,,,,,,,2,No tiene,5,1,1,Cemento,4,0,0,1,1,0,1,1,1,1,0,0,0,0,1,0,1,0,0,0,1 A 30,$1.656.232,5,4,7,4,5,0,3,0,0,2,7,3,6,2,4,3,2,1,Maestro de obra,Despresadora de pollo,Despresadora de pollo,Regular,"0,5",1,3,$15.000,1,1,1,1,1,1,1,0,0,1,0,0,0,0,0
95,PENAGOS PATIÑO JULIETH TATIANA ,T.I.,1.070.385.129,Colombiano,Femenino,901,Colombia,9/23/2004,Cundinamarca,Albán,0,0,0,0,0,0,0,0,Cundinamarca,25,Albán,25019,Urbana,La esmeralda,0,,,,1,,,,1,,,,,,,,1,,,,1,,,,,2,"45,02",4,0,1,Baldosa,3,0,0,0,1,0,0,0,0,1,0,0,0,0,1,1,1,1,0,0,1 A 10,$1.656.232,7,3,3,5,7,1,7,0,0,4,7,3,5,0,0,7,7,5,Auxiliar Varichem,Secretaria,Secretaria,Buena,1,3,0,$0,1,1,1,1,1,1,0,0,0,1,1,0,1,1,0
96,REYES BARRAGAN HUGO ALEJANDRO,T.I.,1.019.983.911,Colombiano,Masculino,901,Colombia,9/17/2004,Cundinamarca,Bogotá,0,0,0,0,0,0,0,0,Cundinamarca,25,Albán,25019,Urbana,La gruta,0,,,,1,,1,,,,,,,,,,,,1,,1,,,,,2,"49,96",4,1,1,Baldosa,3,0,0,0,1,1,0,0,0,0,0,0,1,0,1,1,0,0,0,0,1 A 30,$828.116,7,1,0,3,3,0,2,0,0,0,7,1,0,0,0,1,1,0,No tiene,Auxiliar de odontología,Auxiliar de odontología,Insuficiente,"0,5",3,3,$0,1,1,1,1,1,1,1,0,0,1,1,0,0,0,1
97,RIVERA GOMEZ STEFANNY ALEJANDRA,T.I.,1.003.534.785,Colombiano,Femenino,901,Colombia,5/10/2008,Cundinamarca,Facatativá,1,1,0,0,0,0,0,0,Cundinamarca,25,Albán,25019,Urbana,El progreso,0,,,,,1,,,,,,,,,,,,,,,,,,1,,2,"36,83",6,0,2,Baldosa,,1,0,0,1,0,0,0,1,1,0,0,1,0,1,1,0,0,0,0,1 A 30,$828.116,7,7,3,7,2,0,7,0,0,5,7,0,7,0,0,0,3,0,Equitación,Fiscalia,Fiscalia,Regular,2,1,0,$0,1,1,1,0,1,1,0,1,0,1,1,0,0,1,0
98,RODRIGUEZ LIZCANO KEVIN ANDRES,,,,,,,,,,,,,,,,,,,,,,,,,,,,1,,,,,,,,,,,,,,,,,,,,,,,,,,,,,,,,,,,,,,,,,,,,,,,,,,,,,,,,,,,,,,,,,,,,,,,,,,,,,,,,,,,,,,,,,
99,SALCEDO DONATO ALEJANDRO,T.I.,1.070.944.651,Colombiano,Masculino,901,Colombia,11/5/2004,Cundinamarca,Facatativá,1,1,0,0,0,0,0,0,Cundinamarca,25,Albán,25019,Urbana,El progreso,0,,1,,,,,,,,,,,,,,1,,,,,,,,,2,No tiene,5,0,2,Baldosa,3,0,0,1,1,0,0,1,1,1,0,0,1,0,0,1,1,0,0,0,1 A 10,$828.116,7,2,2,4,4,0,4,0,0,0,0,5,7,0,0,2,2,1,Vigilante,Ama de casa,Ama de casa,Muy buena,"0,5",4,0,$0,1,0,0,1,1,1,0,1,0,1,0,0,1,0,1
100,SEPULVEDA ALZATE ANGIE MARCELA,T.I.,1.091.132.042,Colombiano,Femenino,901,Colombia,2/18/2004,Cundinamarca,Albán,1,1,0,0,0,0,0,0,Cundinamarca,25,Albán,25019,Rural,0,Garbanzal,,1,,,,,,,,,,,,1,,,,,,,,,,,1,No tiene,6,3,1,Baldosa,2,1,0,0,1,0,0,0,1,1,0,0,0,0,0,1,0,0,0,0,1 A 5,$828.116,0,0,0,1,0,0,3,0,0,0,2,0,0,0,2,0,0,0,Galponero,Clasificadora de huevos,Clasificadora de huevos,Buena,1,3,0,$0,1,1,1,1,1,0,0,0,0,1,0,1,0,0,1
101,SERNA GONZALEZ SANTIAGO,T.I.,1.089.599.239,Colombiano,Masculino,901,Colombia,6/2/2007,Risaralda,Pereira,1,1,0,0,0,0,0,0,Cundinamarca,25,Albán,25019,Rural,0,Namay,1,,,,,,,,,,,,,,,,,1,,,,,,,2,"59,39",3,0,0,Baldosa,,1,1,1,1,1,0,0,1,1,0,1,0,0,1,1,1,0,0,0,1 A 20,$828.116,7,3,4,0,5,0,0,0,0,0,0,0,7,7,0,2,0,0,Oficios varios,Ama de casa,Ama de casa,Buena,"0,5",3,0,$0,1,1,1,0,0,0,0,0,0,0,0,0,0,0,0
102,SIERRA JIMENEZ JAVIER ANDRES,T.I.,1.003.657.804,Colombiano,Masculino,901,Colombia,6/20/2003,Cundinamarca,Facatativá,1,1,0,0,0,0,0,0,Cundinamarca,25,Albán,25019,Rural,0,Garbanzal,,,1,,,,,,,,,,,,1,,,,,,,,,,1,No tiene,4,1,,Baldosa,2,0,0,1,1,0,0,0,1,1,0,0,0,0,0,1,0,0,0,0,1 A 5,$828.116,7,3,4,7,7,1,6,0,0,0,5,5,3,3,4,1,5,1,Fontanero,Ama de casa,Ama de casa,Regular,"0,5",2,3,$3.000,0,0,0,0,0,0,0,0,0,1,0,1,0,0,1
103,SIERRA JIMENEZ LUISA FERNANDA,T.I.,1.072.592.143,Colombiano,Femenino,901,Colombia,1/21/2005,Cundinamarca,Facatativá,1,1,0,0,0,0,0,0,Cundinamarca,25,Albán,25019,Rural,0,Garbanzal,,,1,,,,,,,,,,,,1,,,,,,,,,,1,No tiene,4,,1,Baldosa,2,0,0,1,1,0,0,0,1,1,0,0,0,0,0,1,0,0,0,0,1 A 5,$828.116,7,3,4,7,7,1,6,0,0,0,5,5,3,3,4,1,5,1,Fontanero,Ama de casa,Ama de casa,Regular,"0,5",2,6,$10.000,1,1,1,1,1,0,0,0,0,1,0,0,0,0,0
104,SILVA TAPIERO DANIEL FELIPE,C.C.,1.007.384.250,Colombiano,Masculino,901,Colombia,5/15/2000,Cundinamarca,Facatativá,0,1,0,0,0,0,0,0,Cundinamarca,25,Facatativá,25269,Urbana,Cartagenita,0,1,,,,,,,,,,,,,1,,,,,,,,,,,1,"62,77",3,0,3,Baldosa,3,1,0,1,1,1,0,0,1,1,0,0,1,0,0,1,0,0,0,0,1 A 5,$828.116,1,1,1,2,3,1,1,0,0,1,2,2,2,0,0,0,1,2,Cuarteria,Ama de casa,Ama de casa,Buena,"0,5",1,2,$5.000,1,1,1,1,0,1,0,0,0,1,0,0,0,0,0
105,SUAREZ GOMEZ JOHAN SNEIDER,T.I.,1.030.526.852,Colombiano,Masculino,901,Colombia,3/2/2004,Cundinamarca,Bogotá,0,,0,0,0,0,0,0,Cundinamarca,25,Albán,25019,Urbana,La esmeralda,0,,,,1,,,,,,,,,,,,,1,,,,,,,,2,"58,37",4,0,2,Baldosa,3,0,1,0,1,1,0,0,1,1,0,0,0,0,1,1,0,1,0,0,1 A 20,$828.116,3,1,0,1,1,0,1,0,0,0,4,2,0,0,0,2,2,1,Conductor,Empleada,Empleada,Regular,2,1,7,$5.000,1,1,1,1,1,1,0,1,0,1,1,0,1,0,0
106,TRIVIÑO LOPEZ KAROLL DANIELA,T.I.,1.069.647.472,Colombiano,Femenino,901,Colombia,4/8/2004,Cundinamarca,Facatativá,1,1,0,0,0,0,0,0,Cundinamarca,25,Albán,25019,Urbana,El progreso,0,,,,,1,,,,,,,,,,,1,,,,,,,,,1,"42,72",4,0,2,Baldosa,2,0,1,0,1,0,0,0,1,1,0,0,0,0,1,1,0,0,0,0,1 A 20,$1.656.232,5,3,1,3,4,0,2,0,0,1,7,2,4,1,1,2,3,1,Conductor,Oficios varios,Oficios varios,Regular,"0,5",4,0,$0,1,1,1,1,1,1,1,1,0,1,0,0,1,0,0
107,BARRAGAN BARRAGAN DIEGO FELIPE,C.C.,0,Colombiano,Masculino,902,Colombia,,Cundinamarca,Facatativá,0,0,0,0,0,0,0,0,Cundinamarca,25,Albán,25019,,,,1,,,,,,,,,,,,,,,,,,,1,,,,,2,"47,28",3,1,1,Marmol,3,0,0,0,0,0,0,0,0,0,0,0,0,0,0,0,0,0,0,0,1 A 30,$1.656.232,6,3,3,7,3,0,3,0,0,2,6,2,3,1,3,1,2,0,Oficios varios,Ama de casa,Ama de casa,Buena,"0,5",1,$0,$0,1,1,1,1,1,1,0,1,0,1,1,0,1,0,0
108,BELTRAN QUEVEDO MICHAEL YESID,T.I.,1.003.657.756,Colombiano,Masculino,902,Colombia,6/15/2003,Cundinamarca,Facatativá,1,1,0,0,0,0,0,0,Cundinamarca,25,Albán,25019,Urbana,La arboleda,0,,,,,,1,,,,,,,,,,,,1,,,,,,,2,No tiene,4,1,1,Cemento,4,1,1,1,1,1,1,1,1,1,1,1,1,1,1,1,1,1,0,0,,$1.656.232,7,2,1,1,3,0,2,0,1,1,7,2,4,0,0,1,1,0,Oficios varios iglesia,Ama de casa,Ama de casa,Buena,1,3,$0,$0,1,1,1,1,1,1,0,1,0,1,1,0,1,0,0
109,BURGOS SANCHEZ LAURA VALENTINA,T.I.,1.072.592.090,Colombiano,Femenino,902,Colombia,8/1/2004,Cundinamarca,Albán,1,1,0,0,0,0,0,0,Cundinamarca,25,Albán,25019,Urbana,La arboleda,0,,,1,,,,,,,,,,,,1,,,,,,,,,,2,"33,06",3,0,2,Baldosa,2,1,0,0,1,0,0,0,1,1,0,0,0,0,0,0,1,0,0,0,1 A 5,$828.116,5,2,0,4,3,0,0,0,0,0,3,1,0,0,0,1,1,1,Auxiliar de grua,Ama de casa,Ama de casa,Buena,"0,5",3,0,$0,1,1,1,1,1,1,0,1,0,0,0,1,0,0,0
110,BUSTAMANTE BARRAGAN JEINNEL DENISSE,T.I.,1.193.588.143,Colombiano,Femenino,902,Colombia,5/27/2001,Antioquia,Itagûi,1,1,0,0,0,0,0,0,Cundinamarca,25,Albán,25019,Urbana,La gruta,0,,1,,,,,,,,,,,,,,,,1,,,,,,,2,"49,96",4,1,1,Baldosa,3,0,0,0,1,1,0,0,0,0,0,0,1,0,1,1,0,0,0,0,1 A 30,$828.116,7,1,0,3,3,0,2,0,0,0,7,1,0,0,0,1,1,0,No tiene,Auxiliar de odontología,Auxiliar de odontología,Insuficiente,"0,5",3,3,$0,1,1,1,0,1,1,0,1,0,1,0,0,0,0,0
111,CALLEJAS NIETO EMANUEL JOSE,T.I.,1.001.201.092,Colombiano,Masculino,902,Colombia,4/6/2003,Cundinamarca,Facatativá,1,1,0,0,0,0,0,0,Cundinamarca,25,Albán,25019,Urbana,Arboleda,0,,,,,,1,,,,,,,,,,1,,,,,,,,,2,"29,44",3,1,2,Baldosa,2,1,1,1,1,1,0,0,1,1,1,0,0,0,0,0,0,0,0,0,1 A 30,$828.116,4,3,0,3,1,0,0,0,0,0,4,5,1,0,0,1,1,1,Asesor de ventas,Ama de casa,Ama de casa,Buena,2,1,0,$0,1,1,1,1,1,1,0,1,0,1,0,1,0,1,0
112,CAMELO AGUAS CAMILA ANDREA,T.I.,1.070.945.912,Colombiano,Femenino,902,Colombia,2/14/2005,Cundinamarca,Facatativá,0,1,0,0,0,0,0,0,Cundinamarca,25,Albán,25019,Rural,0,Los alpes,,,1,,,,,,,,,,,,1,,,,,,,,,,2,"25,35",6,4,2,Cemento,3,0,0,0,0,0,0,0,1,1,1,0,0,0,1,1,0,0,0,0,1 A 5,$828.116,3,1,0,0,0,0,0,0,0,0,3,6,0,0,0,2,2,1,Administrador,Ama de casa,Ama de casa,Regular,1,0,0,$0,1,1,1,0,0,1,0,1,1,1,0,0,0,1,0
113,CAMPOS MEDINA CARLOS HERNANDO,T.I.,1.070.943.356,Colombiano,Masculino,902,Colombia,5/26/2004,Cundinamarca,Albán,1,1,0,0,0,0,0,0,Cundinamarca,25,Albán,25019,Urbana,La arboleda,0,,,,,1,,,,,,,,,,,1,,,,,,,,,1,"17,09",5,0,2,Baldosa,3,0,0,0,1,0,0,1,1,1,1,0,0,0,0,0,0,0,1,0,1 A 10,$828.116,7,2,0,4,3,0,1,0,0,3,7,1,5,1,2,3,2,0,No sabe,Restaurante,Restaurante,Regular,1,1,0,$0,1,0,0,0,1,1,0,1,0,0,0,0,0,0,0
114,COMBA MORENO DANIELA DEL PILAR,T.I.,1.003.560.648,Colombiano,Femenino,902,Colombia,10/24/2001,Cundinamarca,Sasaima,1,1,0,0,0,0,0,0,Cundinamarca,25,Albán,25019,Rural,0,Chavarro,,1,,,,,,,,,,,,1,,,,,,,,,,,2,"23,01",6,4,2,Cemento,3,1,0,0,1,0,0,0,1,1,1,0,0,0,1,0,0,0,1,0,1 A 30,$828.116,7,3,2,2,2,0,3,0,0,0,5,2,3,0,0,3,2,1,Mantenimiento vial,Ama de casa,Ama de casa,Buena,"0,5",2,4,$20.000,0,1,1,1,1,1,0,0,0,1,1,0,0,0,0
115,CONTRERAS PRIETO JUAN DIEGO,T.I.,1.072.592.172,Colombiano,Masculino,902,Colombia,3/16/2005,Cundinamarca,Albán,1,1,0,0,0,0,0,0,Cundinamarca,25,Albán,25019,Rural,0,Garbanzal,,,,,1,,,,,,,,,,,1,,,,,,,,,2,"29,21",3,1,2,Baldosa,3,0,1,0,0,0,0,0,1,1,1,0,0,0,1,1,0,0,0,0,1 A 20,$1.656.232,2,3,7,2,2,0,3,0,0,0,7,0,3,0,2,1,1,0,Maestro de obra,Servicios barios,Servicios barios,Regular,"0,5",3,0,0,0,1,1,1,1,0,0,0,1,0,0,0,0,0,0
116,CRUZ ESPINEL ANGEL MAURICIO,,,,,,,,,,,,,,,,,,,,,,,,,,,,,,,,,,,,,,,,,,,,,,,,,,,,,,,,,,,,,,,,,,,,,,,,,,,,,,,,,,,,,,,,,,,,,,,,,,,,,,,,,,,,,,,,,,,,,
117,GALINDO ACUÑA ANGIE ELIZABETH,T.I.,1.031.801.828,Colombiano,Femenino,902,Colombia,7/17/2004,Cundinamarca,Bogotá,1,1,0,0,0,0,0,0,Cundinamarca,25,Albán,25019,Rural,0,Java,,,,,1,,,,,,,,,1,,,,,,,,,,,2,No tiene,5,3,1,Baldosa,3,0,0,1,1,0,0,0,1,1,0,0,0,0,0,1,1,0,0,0,1 A 30,$828.116,3,3,1,5,2,0,2,0,0,1,3,2,1,0,0,1,2,1,Gestor de ventas,Ama de casa,Ama de casa,Buena,1,1,2,0,1,1,0,1,1,1,0,0,0,1,0,0,0,0,0
118,GONZALEZ CASTILLO ZARAY TATIANA,T.I.,1.001.060.646,Colombiano,Femenino,902,Colombia,8/26/2002,Cundinamarca,Bogotá,1,0,0,0,0,0,0,0,Cundinamarca,25,Albán,25019,Rural,F. Niña maria,0,,,,,,,,1,,,,,,,,,,,,1,,,,,2,,,,,,,,,,,,,,,,,,,,,,,,,,,,,,,,,,,,,,,,,,,,,,,,,,,,,,,,,,,,,,,,,,,,
119,HERNANDEZ RIOS DANI CAMILA,T.I.,1.070.384.619,Colombiano,Femenino,902,Colombia,5/28/2004,Cundinamarca,Facatativá,1,1,0,0,0,0,0,0,Cundinamarca,25,Guayabal,25328,Rural,0,El resguardo,,,1,,,,,,,,,,,,,1,,,,,,,,,2,No tiene,3,0,0,Cemento,2,0,0,1,1,0,1,0,0,1,0,0,0,0,0,1,1,0,0,0,1 A 10,$828.116,7,2,3,5,3,0,5,0,0,1,4,1,3,0,1,1,1,0,Administrador,Ama de casa,Ama de casa,Buena,1,3,0,0,1,0,1,1,1,1,0,1,0,0,0,0,0,0,0
120,LOPEZ MENDEZ JUAN SEBASTIAN,C.C.,1.192.729.710,Colombiano,Masculino,902,Colombia,3/1/2000,Cundinamarca,Bogotá,1,1,0,0,0,0,0,0,Cundinamarca,25,Albán,25019,Urbana,La esperanza,0,,,,,1,,,,,,,,,,,,1,,,,,,,,2,"38,04",3,3,0,Baldosa,2,1,0,0,1,0,0,0,0,1,0,0,0,0,0,0,0,0,0,0,1 A 5,$828.116,1,1,1,1,1,0,1,0,0,1,1,1,1,1,1,3,5,3,Camionero,Independiente,Independiente,Regular,2,4,3,$15.000,0,1,1,1,1,1,0,0,0,0,0,0,0,0,0
121,MARIN SANTIAGO JULIAN ALVERTO,T.I.,1.026.589.530,Colombiano,Masculino,902,Colombia,1/25/2004,Magdalena,Sienaga,0,0,0,0,0,0,0,0,Cundinamarca,25,Albán,25019,Rural,0,Chuguacal,,,,,,,,,,,,,,,,,,,,,,,,,2,,,,,,,,,,,,,,,,,,,,,,,,,,,,,,,,,,,,,,,,,,,,,,,,,,,,,,,,,,,,,,,,,,,,
122,MORENO CASTRO ANDRES FELIPE ,T.I.,0,Colombiano,Masculino,902,Colombia,9/16/2003,Cundinamarca,Bogotá,1,1,0,0,0,0,0,0,Cundinamarca,25,Albán,25019,Rural,0,La maria alta,1,,,,,,,,,,,,,,,,,,,1,,,,,2,No tiene,4,1,0,Cemento,4,1,0,1,1,1,0,0,1,1,1,0,1,0,1,1,0,1,0,0,1 A 10,menos de 828.116,7,3,7,3,3,0,3,0,0,1,7,4,7,2,1,2,1,1,Tecnico en linea blanca,Costura,Cocina,Muy buena,1,3,0,$0,1,1,1,0,0,1,0,0,0,1,1,1,0,1,0
123,MUÑOZ ANGEL KAROL DAYANA,T.I.,1.070.385.360,Colombiano,Femenino,902,Colombia,11/28/2004,Cundinamarca,Facatativá,1,1,0,0,0,0,0,0,Cundinamarca,25,Facatativá,25269,Rural,0,La tribuna,,1,,,,,,,,,,,,1,,,,,,,,,,,2,"30,25",7,6,0,Cemento,3,0,0,0,1,0,0,0,1,1,0,0,0,0,1,1,0,0,0,0,0,$828.116,7,3,2,4,5,0,3,0,0,3,5,0,2,0,0,3,2,2,Maestro de obra,Ama de casa,Ama de casa,Buena,0,3,0,$0,1,1,1,1,1,1,0,1,1,0,1,0,0,0,1
124,MURILLO BEJARANO DANNY SEBASTIAN,T.I.,1.072.592.113,Colombiano,Masculino,902,Colombia,10/23/2004,Cundinamarca,Bogotá,1,1,0,0,0,0,0,0,Cundinamarca,25,Albán,25019,Rural,0,La maria   ,,1,,,,,,,,,,,,,,1,,,,,,,,,3,"40,21",3,1,0,Baldosa,5,0,1,1,1,1,0,1,1,1,0,0,0,0,1,1,0,1,0,0,1 A 10,$828.116,7,4,7,4,3,0,4,0,0,1,7,2,5,0,2,3,1,1,Conductor de camion,Guarda de seguridad,Ama de casa,Buena,"0,5",3,1,$3.000,1,1,1,0,0,0,0,0,0,1,0,1,0,1,0
125,OMAÑA DUARTE ORIANA SALOME,T.I.,30.184.896,Venezolana,Femenino,902,Colombia,9/1/2003,Sulia,San Francisco,0,0,0,0,0,0,0,0,Cundinamarca,25,Albán,25019,Urbana,0,La gruta,,,,1,,,,,,,,,,,,1,1,,,,,,,,2,Venezo,4,1,0,Cemento,2,0,0,0,0,0,0,0,0,0,0,0,0,0,0,0,0,0,0,0,0,menos de 828.116,3,7,1,7,7,0,0,0,0,0,7,0,0,0,0,0,0,0,Maestro de obra,Ama de casa,Ama de casa,Buena,"0,5",5,0,0,1,1,1,1,1,1,0,1,0,1,1,0,1,0,0
126,PEÑA MARTIN LAURA XIMENA,T.I.,1.000.835.026,Colombiano,Femenino,902,Colombia,8/21/2002,Cundinamarca,Bogotá,1,1,0,0,0,0,0,0,Cundinamarca,25,Albán,25019,Rural,0,La maria   ,,,,1,,,,,,,,,,,,,1,,,,,,,,2,"37,56",3,0,1,Baldosa,2,0,0,0,1,0,0,0,1,1,0,0,0,0,0,1,0,0,0,0,1 A 10,$828.116,3,4,0,7,5,0,4,0,0,2,5,0,3,0,0,0,4,3,Comerciante,Servicios generales,Servicios generales,Buena,1,3,0,$0,1,1,1,0,0,1,0,0,1,0,1,0,0,0,1
127,ROMERO SOLANO MARTIN ALEXIS,T.I.,100.125.017,Colombiano,Masculino,902,Colombia,3/7/2002,Cundinamarca,Bogotá,1,1,0,0,0,0,0,0,Cundinamarca,25,Albán,25019,Urbana,La gruta,0,,,,,1,,,,,,,,,,,,1,,,,,,,,2,No tiene,4,0,1,Baldosa,3,0,0,0,0,1,0,0,0,1,0,0,0,0,0,1,0,0,0,0,1 A 10,$828.116,5,0,3,1,2,0,0,0,0,2,5,3,0,2,2,0,3,0,Desempleado,Independiente,Independiente,Regular,2,1,7,$10.000,1,1,1,0,1,1,0,1,0,0,0,0,0,0,1
128,SANCHEZ GOMEZ DIEGO FERNANDO,T.I.,1.070.780.503,Colombiano,Masculino,902,Colombia,3/27/2006,Cundinamarca,Sasaima,1,1,0,0,0,0,0,0,Cundinamarca,25,Sasaima,25718,Rural,0,Namay bajo,,,,,1,,,,,,,,,1,,,,,,,,,,,2,"18,21",3,2,1,Baldosa,2,0,1,0,1,0,0,1,0,1,0,0,0,0,0,1,1,0,0,0,1 A 30,menos de 828.116,7,4,2,4,5,0,1,0,0,0,7,0,0,0,0,3,3,2,Comerciante,Ama de casa,Ama de casa,Buena,"0,5",1,0,$0,1,0,1,1,1,0,0,0,0,1,0,1,0,1,0
129,TORRES BUITRAGO TANIA VANESSA,T.I.,1.072.592.036,Colombiano,Femenino,902,Colombia,4/17/2004,Cundinamarca,Albán,1,1,0,0,0,0,0,0,Cundinamarca,25,Albán,25019,Urbana,La gruta,0,,,,1,,,,,,,,,,,,1,,,,,,,,,2,"51,02",5,0,2,Baldosa,5,1,0,0,1,0,0,0,1,1,0,0,1,0,0,1,0,1,0,0,1 A 10,$828.116,4,3,0,5,4,0,3,0,0,2,7,0,1,0,0,1,1,1,Transportador,Comerciante,Comerciante,Buena,1,2,0,$0,1,1,1,1,1,1,0,1,1,1,1,0,0,0,0
130,VERGARA FIERRO MILENY YURANY,T.I.,1.070.384.348,Colombiano,Femenino,902,Colombia,3/10/2004,Cundinamarca,Facatativá,0,1,0,0,0,0,0,0,Cundinamarca,25,Albán,25019,Rural,0,Guayacundo alto,,1,,,,,,,,,,,,1,,,,,,,,,,,2,"25,83",7,1,0,Cemento,4,0,1,0,1,0,0,0,0,0,0,0,0,0,0,1,0,0,0,0,1 A 5,menos de 828.116,7,3,0,7,3,0,7,0,0,0,7,2,0,0,0,1,2,1,Molienda,Ama de casa,Ama de casa,Regular,2,1,0,$0,1,1,1,0,0,1,0,0,0,1,0,0,1,0,0
131,VERGARA FIERRO SIDNY JULIETH,T.I.,1.070.384.349,Colombiano,Femenino,902,Colombia,3/10/2004,Cundinamarca,Facatativá,0,1,0,0,0,0,0,0,Cundinamarca,25,Albán,25019,Rural,0,Guayacundo alto,,1,,,,,,,,,,,,1,,,,,,,,,,,2,"25,83",7,1,0,Cemento,4,0,1,0,1,0,0,0,0,0,0,0,0,0,0,1,0,0,0,0,1 A 5,menos de 828.116,5,0,0,2,1,0,0,0,0,0,2,0,0,0,0,2,0,0,Molienda,Ama de casa,Ama de casa,Regular,2,1,0,$0,0,1,1,0,0,0,0,0,0,0,0,0,0,1,0
132,VIVAS GARCIA YESICA DAYANA,T.I.,1.003.657.847,Colombiano,Femenino,902,Colombia,4/21/2003,Cundinamarca,Albán,0,1,0,0,0,0,0,0,Cundinamarca,25,Albán,25019,Rural,0,El entable,,,1,,,,,,,,,,,,1,,,,,,,,,,2,"24,16",3,2,2,Cemento,2,0,,0,0,0,0,0,1,1,0,0,0,0,0,1,0,0,0,0,1 A 10,$828.116,7,5,0,0,1,7,0,0,0,0,3,0,0,0,0,1,1,0,Administrador de finca,Ama de casa,Ama de casa,Regular,2,1,0,$0,1,1,1,1,0,1,1,1,0,1,0,0,0,0,0